[
	{
	"desc": "Links between Emmanuel Macron and the pharmaceutical industry.",
	"value": "macron pharmaceutical"
	},
    {
    "desc": "Connections between the military and nuclear industries.",
    "value": "military nuclear"
    }
]
