[
{
  "score": 0,
  "root": {
    "local_node_id": "camillechanial|test|manager",
    "ds_id": 1
  },
  "edges": [
    {
      "src": {
        "local_node_id": "camillechanial|test|manager",
        "ds_id": 1
      },
      "label": "-> 1 camillechanial|test|manager,1 camillechanial|test|manager|1",
      "dest": {
        "local_node_id": "camillechanial|test|manager|1",
        "ds_id": 1
      }
    },
    {
      "src": {
        "local_node_id": "camillechanial|test|manager",
        "ds_id": 1
      },
      "label": "-> 1 camillechanial|test|manager,1 camillechanial|test|manager|2",
      "dest": {
        "local_node_id": "camillechanial|test|manager|2",
        "ds_id": 1
      }
    },
    {
      "src": {
        "local_node_id": "camillechanial|test|manager|1",
        "ds_id": 1
      },
      "label": "-> 1 camillechanial|test|manager|1,1 camillechanial|test|manager|1|appelation",
      "dest": {
        "local_node_id": "camillechanial|test|manager|1|appelation",
        "ds_id": 1
      }
    },
    {
      "src": {
        "local_node_id": "camillechanial|test|manager|2",
        "ds_id": 1
      },
      "label": "-> 1 camillechanial|test|manager|2,1 camillechanial|test|manager|2|appelation",
      "dest": {
        "local_node_id": "camillechanial|test|manager|2|appelation",
        "ds_id": 1
      }
    }
  ],
  "match_map": [
    {
      "node": "1.Node(camillechanial|test|manager|2|appelation)",
      "kwd": "Redouane Dziri"
    },
    {
      "node": "1.Node(camillechanial|test|manager|1|appelation)",
      "kwd": "Camille Chanial"
    }
  ]
}
]