Company;Executive
MSC;Rafaela Aponte
Accenture;Pierre Nanterme
ACE Limited;Evan G. Greenberg
Aditya Birla Group;Kumar Birla
Adobe Systems;Shantanu Narayen
Agenus;Garo H. Armen
Amazon.com;Jeff Bezos
AMD;Lisa Su
American Express;Kenneth Chenault
American Airlines Group;Doug Parker
Anthem Inc.;Joseph R. Swedish
Apple Inc.;Tim Cook
Arcelor Mittal;Lakshmi Niwas Mittal
AT&T;Randall L. Stephenson
BAE Systems;Charles Woodburn
Bajaj Allianz General Insurance;Tapan Singhel
Banco Bilbao Vizcaya Argentaria;Carlos Torres Vila
Bank of America;Brian Moynihan
Barclays;Jes Staley
Berkshire Hathaway;Warren Buffett
Best Buy;Hubert Joly
Bharti Enterprises;Sunil Bharti Mittal
Blackstone Group;Stephen A. Schwarzman
BHP Billiton;Andrew Mackenzie
BMW;Harald Krüger
BNY Mellon;Charles Scharf
Boeing;Dennis Muilenburg
Boston Consulting Group;Rich Lesser
BP;Bob Dudley
Campbell Soup Company;Denise Morrison
Canonical Ltd.;Mark Shuttleworth
Capgemini;Paul Hermelin
Capital One Financial;Richard Fairbank
Caterpillar Inc.;Jim Umpleby
CBS Corporation;Leslie Moonves
Cisco Systems;Chuck Robbins
Citigroup;Michael Corbat
Coca-Cola;James Quincey
Cognizant;Francisco D'Souza
Comcast;Brian L. Roberts
Credit Suisse;Tidjane Thiam
Crown Worldwide Group;James E. Thompson
Daimler AG;Dieter Zetsche
Dell;Michael Dell
Deutsche Bank;John Cryan
Deutsche Post;Frank Appel
Dow Chemical Company;Edward D. Breen
Dr. Reddy's;G. V. Prasad
Eastman Kodak;Jeff Clarke
Airbus;Tom Enders
eBay;Devin Wenig
Electronic Arts;Andrew Wilson
Ericsson;Börje Ekholm
Exxon Mobil;Darren Woods
EY;Mark Weinberger
Facebook;Mark Zuckerberg
FedEx;Frederick W. Smith
Fiat S.p.A.;Sergio Marchionne
Fidelity Investments;Abigail Johnson
Ford Motor Company;James Hackett
Foxconn Electronics Inc;Terry Gou
FUBU;Daymond John
General Dynamics;Phebe Novakovic
General Electric;John L. Flannery
General Motors;Mary T. Barra
Gerdau;André Bier Gerdau Johannpeter
GlaxoSmithKline;Emma Walmsley
Goldman Sachs;Lloyd Blankfein
Google;Sundar Pichai
GMA Network;Felipe Gozon
GVK Group;Gunupati Venkata Krishna Reddy
HCL Technologies;C Vijayakumar
Henderson Land Development;Lee Shau Kee
Hewlett Packard Enterprise;Meg Whitman
Honeywell;Darius Adamczyk
HP Hood LLC;John A. Kaneb
HSBC;Stuart Gulliver
IBM;Virginia M. Rometty
Infosys;Salil Parekh
Intel;Brian Krzanich
InterCall;Scott Etzler
J.Crew;Millard Drexler
Jefferies Group;Richard B. Handler
JP Morgan Chase;James Dimon
Kaplan, Inc.;Andrew S. Rosen
Koch Industries Inc.;Charles G. Koch
Land Securities;Robert Noel
Las Vegas Sands;Sheldon Adelson
L Brands;Les Wexner
Lockheed Martin;Marillyn Hewson
Marks and Spencer;Steve Rowe
McDonald's;Steve Easterbrook
McKinsey;Dominic Barton
Mesa Air Group;Jonathan Ornstein
MetLife;Steven A. Kandarian
MGA Entertainment;Isaac Larian
Microsoft;Satya Nadella
MicroStrategy;Michael J. Saylor
Morgan Stanley;James P. Gorman