{
    "schema:StatusEnumeration": [
        "schema:Enumeration"
    ],
    "schema:Restaurant": [
        "schema:FoodEstablishment"
    ],
    "schema:LocalBusiness": [
        "schema:Organization",
        "schema:Place"
    ],
    "schema:NLNonprofitType": [
        "schema:NonprofitType"
    ],
    "schema:FundingScheme": [
        "schema:Organization"
    ],
    "schema:InternetCafe": [
        "schema:LocalBusiness"
    ],
    "schema:MensClothingStore": [
        "schema:Store"
    ],
    "schema:MedicalProcedure": [
        "schema:MedicalEntity"
    ],
    "schema:Hospital": [
        "schema:MedicalOrganization",
        "schema:EmergencyService",
        "schema:CivicStructure"
    ],
    "schema:CheckOutAction": [
        "schema:CommunicateAction"
    ],
    "schema:BuyAction": [
        "schema:TradeAction"
    ],
    "schema:ApprovedIndication": [
        "schema:MedicalIndication"
    ],
    "schema:TelevisionStation": [
        "schema:LocalBusiness"
    ],
    "schema:Festival": [
        "schema:Event"
    ],
    "schema:MarryAction": [
        "schema:InteractAction"
    ],
    "schema:PriceSpecification": [
        "schema:StructuredValue"
    ],
    "schema:SportsEvent": [
        "schema:Event"
    ],
    "schema:WearableSizeGroupEnumeration": [
        "schema:SizeGroupEnumeration"
    ],
    "schema:GolfCourse": [
        "schema:SportsActivityLocation"
    ],
    "schema:WinAction": [
        "schema:AchieveAction"
    ],
    "schema:TravelAgency": [
        "schema:LocalBusiness"
    ],
    "schema:Mountain": [
        "schema:Landform"
    ],
    "schema:DrugCostCategory": [
        "schema:MedicalEnumeration"
    ],
    "schema:RVPark": [
        "schema:CivicStructure"
    ],
    "schema:PlayAction": [
        "schema:Action"
    ],
    "schema:PoliceStation": [
        "schema:CivicStructure",
        "schema:EmergencyService"
    ],
    "schema:MovieRentalStore": [
        "schema:Store"
    ],
    "schema:EducationalOccupationalCredential": [
        "schema:CreativeWork"
    ],
    "schema:BikeStore": [
        "schema:Store"
    ],
    "schema:Energy": [
        "schema:Quantity"
    ],
    "schema:BrokerageAccount": [
        "schema:InvestmentOrDeposit"
    ],
    "schema:MedicalClinic": [
        "schema:MedicalOrganization",
        "schema:MedicalBusiness"
    ],
    "schema:LearningResource": [
        "schema:CreativeWork"
    ],
    "schema:Brand": [
        "schema:Intangible"
    ],
    "schema:ContactPoint": [
        "schema:StructuredValue"
    ],
    "schema:JobPosting": [
        "schema:Intangible"
    ],
    "schema:Accommodation": [
        "schema:Place"
    ],
    "schema:MedicalRiskScore": [
        "schema:MedicalRiskEstimator"
    ],
    "schema:HotelRoom": [
        "schema:Room"
    ],
    "schema:SchoolDistrict": [
        "schema:AdministrativeArea"
    ],
    "schema:PlayGameAction": [
        "schema:ConsumeAction"
    ],
    "schema:Reservation": [
        "schema:Intangible"
    ],
    "schema:TrackAction": [
        "schema:FindAction"
    ],
    "schema:URL": [
        "schema:Text"
    ],
    "schema:Person": [
        "schema:Thing"
    ],
    "schema:StadiumOrArena": [
        "schema:SportsActivityLocation",
        "schema:CivicStructure"
    ],
    "schema:MedicalGuideline": [
        "schema:MedicalEntity"
    ],
    "schema:QuantitativeValue": [
        "schema:StructuredValue"
    ],
    "schema:Campground": [
        "schema:LodgingBusiness",
        "schema:CivicStructure"
    ],
    "schema:MedicalProcedureType": [
        "schema:MedicalEnumeration"
    ],
    "schema:OpinionNewsArticle": [
        "schema:NewsArticle"
    ],
    "schema:PriceTypeEnumeration": [
        "schema:Enumeration"
    ],
    "schema:ParcelDelivery": [
        "schema:Intangible"
    ],
    "schema:PaymentStatusType": [
        "schema:StatusEnumeration"
    ],
    "schema:SpeakableSpecification": [
        "schema:Intangible"
    ],
    "schema:Drawing": [
        "schema:CreativeWork"
    ],
    "schema:InformAction": [
        "schema:CommunicateAction"
    ],
    "schema:ReviewNewsArticle": [
        "schema:CriticReview",
        "schema:NewsArticle"
    ],
    "schema:MovingCompany": [
        "schema:HomeAndConstructionBusiness"
    ],
    "schema:BoardingPolicyType": [
        "schema:Enumeration"
    ],
    "schema:NGO": [
        "schema:Organization"
    ],
    "schema:DeliveryTimeSettings": [
        "schema:StructuredValue"
    ],
    "schema:Invoice": [
        "schema:Intangible"
    ],
    "schema:GasStation": [
        "schema:AutomotiveBusiness"
    ],
    "schema:RecommendedDoseSchedule": [
        "schema:DoseSchedule"
    ],
    "schema:DrugCost": [
        "schema:MedicalEntity"
    ],
    "schema:Car": [
        "schema:Vehicle"
    ],
    "schema:AboutPage": [
        "schema:WebPage"
    ],
    "schema:OfferItemCondition": [
        "schema:Enumeration"
    ],
    "schema:LodgingReservation": [
        "schema:Reservation"
    ],
    "schema:EndorsementRating": [
        "schema:Rating"
    ],
    "schema:ShortStory": [
        "schema:CreativeWork"
    ],
    "schema:UserPageVisits": [
        "schema:UserInteraction"
    ],
    "schema:TipAction": [
        "schema:TradeAction"
    ],
    "schema:PerformingArtsTheater": [
        "schema:CivicStructure"
    ],
    "schema:Event": [
        "schema:Thing"
    ],
    "schema:FoodEstablishment": [
        "schema:LocalBusiness"
    ],
    "schema:SubscribeAction": [
        "schema:InteractAction"
    ],
    "schema:OfferForLease": [
        "schema:Offer"
    ],
    "schema:CompleteDataFeed": [
        "schema:DataFeed"
    ],
    "schema:OutletStore": [
        "schema:Store"
    ],
    "schema:Country": [
        "schema:AdministrativeArea"
    ],
    "schema:HealthClub": [
        "schema:HealthAndBeautyBusiness",
        "schema:SportsActivityLocation"
    ],
    "schema:Diet": [
        "schema:LifestyleModification",
        "schema:CreativeWork"
    ],
    "schema:BoatReservation": [
        "schema:Reservation"
    ],
    "schema:ElementarySchool": [
        "schema:EducationalOrganization"
    ],
    "schema:MusicAlbum": [
        "schema:MusicPlaylist"
    ],
    "schema:MeasurementTypeEnumeration": [
        "schema:Enumeration"
    ],
    "schema:ExerciseAction": [
        "schema:PlayAction"
    ],
    "schema:MusicAlbumReleaseType": [
        "schema:Enumeration"
    ],
    "schema:AutoPartsStore": [
        "schema:Store",
        "schema:AutomotiveBusiness"
    ],
    "schema:EventAttendanceModeEnumeration": [
        "schema:Enumeration"
    ],
    "schema:DanceEvent": [
        "schema:Event"
    ],
    "schema:DeleteAction": [
        "schema:UpdateAction"
    ],
    "schema:QuantitativeValueDistribution": [
        "schema:StructuredValue"
    ],
    "schema:DiscussionForumPosting": [
        "schema:SocialMediaPosting"
    ],
    "schema:Nursing": [
        "schema:MedicalBusiness"
    ],
    "schema:PublicSwimmingPool": [
        "schema:SportsActivityLocation"
    ],
    "schema:Nerve": [
        "schema:AnatomicalStructure"
    ],
    "schema:BackgroundNewsArticle": [
        "schema:NewsArticle"
    ],
    "schema:DataFeedItem": [
        "schema:Intangible"
    ],
    "schema:PaymentMethod": [
        "schema:Enumeration"
    ],
    "schema:WearAction": [
        "schema:UseAction"
    ],
    "schema:Corporation": [
        "schema:Organization"
    ],
    "schema:SocialEvent": [
        "schema:Event"
    ],
    "schema:HowToSupply": [
        "schema:HowToItem"
    ],
    "schema:ExercisePlan": [
        "schema:CreativeWork",
        "schema:PhysicalActivity"
    ],
    "schema:AutoRepair": [
        "schema:AutomotiveBusiness"
    ],
    "schema:SubwayStation": [
        "schema:CivicStructure"
    ],
    "schema:DaySpa": [
        "schema:HealthAndBeautyBusiness"
    ],
    "schema:RadioStation": [
        "schema:LocalBusiness"
    ],
    "schema:PaymentCard": [
        "schema:PaymentMethod",
        "schema:FinancialProduct"
    ],
    "schema:ProductGroup": [
        "schema:Product"
    ],
    "schema:ShoeStore": [
        "schema:Store"
    ],
    "schema:PerformanceRole": [
        "schema:Role"
    ],
    "schema:DietNutrition": [
        "schema:MedicalBusiness"
    ],
    "schema:SportsActivityLocation": [
        "schema:LocalBusiness"
    ],
    "schema:BodyMeasurementTypeEnumeration": [
        "schema:MeasurementTypeEnumeration"
    ],
    "schema:TieAction": [
        "schema:AchieveAction"
    ],
    "schema:AuthorizeAction": [
        "schema:AllocateAction"
    ],
    "schema:AutoRental": [
        "schema:AutomotiveBusiness"
    ],
    "schema:MortgageLoan": [
        "schema:LoanOrCredit"
    ],
    "schema:MovieSeries": [
        "schema:CreativeWorkSeries"
    ],
    "schema:ReturnAction": [
        "schema:TransferAction"
    ],
    "schema:FinancialProduct": [
        "schema:Service"
    ],
    "schema:MotorcycleRepair": [
        "schema:AutomotiveBusiness"
    ],
    "schema:Book": [
        "schema:CreativeWork"
    ],
    "schema:MedicalRiskCalculator": [
        "schema:MedicalRiskEstimator"
    ],
    "schema:VideoObject": [
        "schema:MediaObject"
    ],
    "schema:MusicRelease": [
        "schema:MusicPlaylist"
    ],
    "schema:CableOrSatelliteService": [
        "schema:Service"
    ],
    "schema:PaintAction": [
        "schema:CreateAction"
    ],
    "schema:CancelAction": [
        "schema:PlanAction"
    ],
    "schema:Dataset": [
        "schema:CreativeWork"
    ],
    "schema:AutoWash": [
        "schema:AutomotiveBusiness"
    ],
    "schema:NailSalon": [
        "schema:HealthAndBeautyBusiness"
    ],
    "schema:Painting": [
        "schema:CreativeWork"
    ],
    "schema:Physician": [
        "schema:MedicalOrganization",
        "schema:MedicalBusiness"
    ],
    "schema:TaxiService": [
        "schema:Service"
    ],
    "schema:InteractAction": [
        "schema:Action"
    ],
    "schema:TaxiReservation": [
        "schema:Reservation"
    ],
    "schema:PhysicalActivityCategory": [
        "schema:Enumeration"
    ],
    "schema:InfectiousAgentClass": [
        "schema:MedicalEnumeration"
    ],
    "schema:ReadAction": [
        "schema:ConsumeAction"
    ],
    "schema:MedicalScholarlyArticle": [
        "schema:ScholarlyArticle"
    ],
    "schema:ItemAvailability": [
        "schema:Enumeration"
    ],
    "schema:DayOfWeek": [
        "schema:Enumeration"
    ],
    "schema:CategoryCodeSet": [
        "schema:DefinedTermSet"
    ],
    "schema:BookStore": [
        "schema:Store"
    ],
    "schema:Taxon": [
        "schema:Thing"
    ],
    "schema:TVSeries": [
        "schema:CreativeWorkSeries",
        "schema:CreativeWork"
    ],
    "schema:LandmarksOrHistoricalBuildings": [
        "schema:Place"
    ],
    "schema:Service": [
        "schema:Intangible"
    ],
    "schema:VisualArtwork": [
        "schema:CreativeWork"
    ],
    "schema:DefinedTerm": [
        "schema:Intangible"
    ],
    "schema:Specialty": [
        "schema:Enumeration"
    ],
    "schema:CoverArt": [
        "schema:VisualArtwork"
    ],
    "schema:PrimaryCare": [
        "schema:MedicalBusiness"
    ],
    "schema:ChildCare": [
        "schema:LocalBusiness"
    ],
    "schema:Order": [
        "schema:Intangible"
    ],
    "schema:GroceryStore": [
        "schema:Store"
    ],
    "schema:Continent": [
        "schema:Landform"
    ],
    "schema:SportsClub": [
        "schema:SportsActivityLocation"
    ],
    "schema:SearchRescueOrganization": [
        "schema:Organization"
    ],
    "schema:OfferForPurchase": [
        "schema:Offer"
    ],
    "schema:PostOffice": [
        "schema:GovernmentOffice"
    ],
    "schema:BusOrCoach": [
        "schema:Vehicle"
    ],
    "schema:Oncologic": [
        "schema:MedicalBusiness"
    ],
    "schema:HobbyShop": [
        "schema:Store"
    ],
    "schema:GovernmentOffice": [
        "schema:LocalBusiness"
    ],
    "schema:VeterinaryCare": [
        "schema:MedicalOrganization"
    ],
    "schema:ContactPointOption": [
        "schema:Enumeration"
    ],
    "schema:Bridge": [
        "schema:CivicStructure"
    ],
    "schema:Claim": [
        "schema:CreativeWork"
    ],
    "schema:AggregateRating": [
        "schema:Rating"
    ],
    "schema:HealthAndBeautyBusiness": [
        "schema:LocalBusiness"
    ],
    "schema:InvestmentOrDeposit": [
        "schema:FinancialProduct"
    ],
    "schema:IgnoreAction": [
        "schema:AssessAction"
    ],
    "schema:WPSideBar": [
        "schema:WebPageElement"
    ],
    "schema:ReportedDoseSchedule": [
        "schema:DoseSchedule"
    ],
    "schema:GovernmentPermit": [
        "schema:Permit"
    ],
    "schema:CurrencyConversionService": [
        "schema:FinancialProduct"
    ],
    "schema:BoatTerminal": [
        "schema:CivicStructure"
    ],
    "schema:SaleEvent": [
        "schema:Event"
    ],
    "schema:BedAndBreakfast": [
        "schema:LodgingBusiness"
    ],
    "schema:HealthAspectEnumeration": [
        "schema:Enumeration"
    ],
    "schema:Game": [
        "schema:CreativeWork"
    ],
    "schema:Intangible": [
        "schema:Thing"
    ],
    "schema:SuspendAction": [
        "schema:ControlAction"
    ],
    "schema:AdministrativeArea": [
        "schema:Place"
    ],
    "schema:LegislationObject": [
        "schema:Legislation",
        "schema:MediaObject"
    ],
    "schema:CarUsageType": [
        "schema:Enumeration"
    ],
    "schema:PetStore": [
        "schema:Store"
    ],
    "schema:PronounceableText": [
        "schema:Text"
    ],
    "schema:SportsTeam": [
        "schema:SportsOrganization"
    ],
    "schema:ProductCollection": [
        "schema:Product",
        "schema:Collection"
    ],
    "schema:Physiotherapy": [
        "schema:MedicalBusiness"
    ],
    "schema:ArriveAction": [
        "schema:MoveAction"
    ],
    "schema:BusReservation": [
        "schema:Reservation"
    ],
    "schema:DietarySupplement": [
        "schema:Substance"
    ],
    "schema:UserLikes": [
        "schema:UserInteraction"
    ],
    "schema:UnitPriceSpecification": [
        "schema:PriceSpecification"
    ],
    "schema:AdultOrientedEnumeration": [
        "schema:Enumeration"
    ],
    "schema:CivicStructure": [
        "schema:Place"
    ],
    "schema:AllocateAction": [
        "schema:OrganizeAction"
    ],
    "schema:HairSalon": [
        "schema:HealthAndBeautyBusiness"
    ],
    "schema:Hostel": [
        "schema:LodgingBusiness"
    ],
    "schema:NonprofitType": [
        "schema:Enumeration"
    ],
    "schema:ResearchOrganization": [
        "schema:Organization"
    ],
    "schema:Schedule": [
        "schema:Intangible"
    ],
    "schema:BarOrPub": [
        "schema:FoodEstablishment"
    ],
    "schema:ReturnFeesEnumeration": [
        "schema:Enumeration"
    ],
    "schema:Cemetery": [
        "schema:CivicStructure"
    ],
    "schema:Message": [
        "schema:CreativeWork"
    ],
    "schema:BroadcastService": [
        "schema:Service"
    ],
    "schema:DrugLegalStatus": [
        "schema:MedicalIntangible"
    ],
    "schema:RepaymentSpecification": [
        "schema:StructuredValue"
    ],
    "schema:Muscle": [
        "schema:AnatomicalStructure"
    ],
    "schema:Demand": [
        "schema:Intangible"
    ],
    "schema:MedicalEvidenceLevel": [
        "schema:MedicalEnumeration"
    ],
    "schema:WebAPI": [
        "schema:Service"
    ],
    "schema:LegislativeBuilding": [
        "schema:GovernmentBuilding"
    ],
    "schema:RadioBroadcastService": [
        "schema:BroadcastService"
    ],
    "schema:ShippingDeliveryTime": [
        "schema:StructuredValue"
    ],
    "schema:LymphaticVessel": [
        "schema:Vessel"
    ],
    "schema:Product": [
        "schema:Thing"
    ],
    "schema:BroadcastChannel": [
        "schema:Intangible"
    ],
    "schema:ComputerLanguage": [
        "schema:Intangible"
    ],
    "schema:Museum": [
        "schema:CivicStructure"
    ],
    "schema:ToyStore": [
        "schema:Store"
    ],
    "schema:RadioEpisode": [
        "schema:Episode"
    ],
    "schema:WebSite": [
        "schema:CreativeWork"
    ],
    "schema:Optometric": [
        "schema:MedicalBusiness"
    ],
    "schema:Gynecologic": [
        "schema:MedicalBusiness"
    ],
    "schema:GatedResidenceCommunity": [
        "schema:Residence"
    ],
    "schema:MedicalRiskFactor": [
        "schema:MedicalEntity"
    ],
    "schema:PhysicalActivity": [
        "schema:LifestyleModification"
    ],
    "schema:FastFoodRestaurant": [
        "schema:FoodEstablishment"
    ],
    "schema:LegalForceStatus": [
        "schema:StatusEnumeration"
    ],
    "schema:CreativeWorkSeason": [
        "schema:CreativeWork"
    ],
    "schema:Chapter": [
        "schema:CreativeWork"
    ],
    "schema:EducationalOccupationalProgram": [
        "schema:Intangible"
    ],
    "schema:Vessel": [
        "schema:AnatomicalStructure"
    ],
    "schema:UserPlusOnes": [
        "schema:UserInteraction"
    ],
    "schema:BowlingAlley": [
        "schema:SportsActivityLocation"
    ],
    "schema:ConvenienceStore": [
        "schema:Store"
    ],
    "schema:EnergyEfficiencyEnumeration": [
        "schema:Enumeration"
    ],
    "schema:TaxiStand": [
        "schema:CivicStructure"
    ],
    "schema:ApartmentComplex": [
        "schema:Residence"
    ],
    "schema:PropertyValueSpecification": [
        "schema:Intangible"
    ],
    "schema:MediaObject": [
        "schema:CreativeWork"
    ],
    "schema:Motel": [
        "schema:LodgingBusiness"
    ],
    "schema:Midwifery": [
        "schema:MedicalBusiness"
    ],
    "schema:RsvpAction": [
        "schema:InformAction"
    ],
    "schema:AutomotiveBusiness": [
        "schema:LocalBusiness"
    ],
    "schema:Mosque": [
        "schema:PlaceOfWorship"
    ],
    "schema:ChooseAction": [
        "schema:AssessAction"
    ],
    "schema:Courthouse": [
        "schema:GovernmentBuilding"
    ],
    "schema:AudioObject": [
        "schema:MediaObject"
    ],
    "schema:Aquarium": [
        "schema:CivicStructure"
    ],
    "schema:Review": [
        "schema:CreativeWork"
    ],
    "schema:Electrician": [
        "schema:HomeAndConstructionBusiness"
    ],
    "schema:MoveAction": [
        "schema:Action"
    ],
    "schema:School": [
        "schema:EducationalOrganization"
    ],
    "schema:Manuscript": [
        "schema:CreativeWork"
    ],
    "schema:SearchResultsPage": [
        "schema:WebPage"
    ],
    "schema:ContactPage": [
        "schema:WebPage"
    ],
    "schema:NewsArticle": [
        "schema:Article"
    ],
    "schema:ScreeningEvent": [
        "schema:Event"
    ],
    "schema:OwnershipInfo": [
        "schema:StructuredValue"
    ],
    "schema:Movie": [
        "schema:CreativeWork"
    ],
    "schema:AcceptAction": [
        "schema:AllocateAction"
    ],
    "schema:BedDetails": [
        "schema:Intangible"
    ],
    "schema:SellAction": [
        "schema:TradeAction"
    ],
    "schema:RentalCarReservation": [
        "schema:Reservation"
    ],
    "schema:LakeBodyOfWater": [
        "schema:BodyOfWater"
    ],
    "schema:MediaReviewItem": [
        "schema:CreativeWork"
    ],
    "schema:DepartmentStore": [
        "schema:Store"
    ],
    "schema:Distillery": [
        "schema:FoodEstablishment"
    ],
    "schema:ComedyEvent": [
        "schema:Event"
    ],
    "schema:Statement": [
        "schema:CreativeWork"
    ],
    "schema:Seat": [
        "schema:Intangible"
    ],
    "schema:MovieTheater": [
        "schema:CivicStructure",
        "schema:EntertainmentBusiness"
    ],
    "schema:RadiationTherapy": [
        "schema:MedicalTherapy"
    ],
    "schema:PerformAction": [
        "schema:PlayAction"
    ],
    "schema:CategoryCode": [
        "schema:DefinedTerm"
    ],
    "schema:CriticReview": [
        "schema:Review"
    ],
    "schema:BroadcastFrequencySpecification": [
        "schema:Intangible"
    ],
    "schema:RecyclingCenter": [
        "schema:LocalBusiness"
    ],
    "schema:Duration": [
        "schema:Quantity"
    ],
    "schema:Synagogue": [
        "schema:PlaceOfWorship"
    ],
    "schema:ListenAction": [
        "schema:ConsumeAction"
    ],
    "schema:SolveMathAction": [
        "schema:Action"
    ],
    "schema:BroadcastEvent": [
        "schema:PublicationEvent"
    ],
    "schema:AppendAction": [
        "schema:InsertAction"
    ],
    "schema:IndividualProduct": [
        "schema:Product"
    ],
    "schema:InfectiousDisease": [
        "schema:MedicalCondition"
    ],
    "schema:ReplyAction": [
        "schema:CommunicateAction"
    ],
    "schema:PalliativeProcedure": [
        "schema:MedicalTherapy",
        "schema:MedicalProcedure"
    ],
    "schema:Winery": [
        "schema:FoodEstablishment"
    ],
    "schema:MeetingRoom": [
        "schema:Room"
    ],
    "schema:PhotographAction": [
        "schema:CreateAction"
    ],
    "schema:EngineSpecification": [
        "schema:StructuredValue"
    ],
    "schema:SendAction": [
        "schema:TransferAction"
    ],
    "schema:Report": [
        "schema:Article"
    ],
    "schema:MotorizedBicycle": [
        "schema:Vehicle"
    ],
    "schema:DoseSchedule": [
        "schema:MedicalIntangible"
    ],
    "schema:ComicSeries": [
        "schema:Periodical"
    ],
    "schema:MedicalContraindication": [
        "schema:MedicalEntity"
    ],
    "schema:CommunityHealth": [
        "schema:MedicalBusiness"
    ],
    "schema:CheckoutPage": [
        "schema:WebPage"
    ],
    "schema:TheaterEvent": [
        "schema:Event"
    ],
    "schema:UpdateAction": [
        "schema:Action"
    ],
    "schema:Store": [
        "schema:LocalBusiness"
    ],
    "schema:Enumeration": [
        "schema:Intangible"
    ],
    "schema:Notary": [
        "schema:LegalService"
    ],
    "schema:DefinedTermSet": [
        "schema:CreativeWork"
    ],
    "schema:LoseAction": [
        "schema:AchieveAction"
    ],
    "schema:OrderAction": [
        "schema:TradeAction"
    ],
    "schema:ComicIssue": [
        "schema:PublicationIssue"
    ],
    "schema:CommunicateAction": [
        "schema:InteractAction"
    ],
    "schema:LegalService": [
        "schema:LocalBusiness"
    ],
    "schema:Emergency": [
        "schema:MedicalBusiness"
    ],
    "schema:ArchiveOrganization": [
        "schema:LocalBusiness"
    ],
    "schema:QuoteAction": [
        "schema:TradeAction"
    ],
    "schema:AMRadioChannel": [
        "schema:RadioChannel"
    ],
    "schema:InsuranceAgency": [
        "schema:FinancialService"
    ],
    "schema:MobileApplication": [
        "schema:SoftwareApplication"
    ],
    "schema:SelfStorage": [
        "schema:LocalBusiness"
    ],
    "schema:City": [
        "schema:AdministrativeArea"
    ],
    "schema:CovidTestingFacility": [
        "schema:MedicalClinic"
    ],
    "schema:MusicVideoObject": [
        "schema:MediaObject"
    ],
    "schema:Blog": [
        "schema:CreativeWork"
    ],
    "schema:MedicalImagingTechnique": [
        "schema:MedicalEnumeration"
    ],
    "schema:CorrectionComment": [
        "schema:Comment"
    ],
    "schema:RentAction": [
        "schema:TradeAction"
    ],
    "schema:AssignAction": [
        "schema:AllocateAction"
    ],
    "schema:Mass": [
        "schema:Quantity"
    ],
    "schema:PhysicalExam": [
        "schema:MedicalEnumeration",
        "schema:MedicalProcedure"
    ],
    "schema:OrganizeAction": [
        "schema:Action"
    ],
    "schema:FMRadioChannel": [
        "schema:RadioChannel"
    ],
    "schema:CreditCard": [
        "schema:PaymentCard",
        "schema:LoanOrCredit"
    ],
    "schema:LegalValueLevel": [
        "schema:Enumeration"
    ],
    "schema:BuddhistTemple": [
        "schema:PlaceOfWorship"
    ],
    "schema:GeoShape": [
        "schema:StructuredValue"
    ],
    "schema:House": [
        "schema:Accommodation"
    ],
    "schema:ConsumeAction": [
        "schema:Action"
    ],
    "schema:PawnShop": [
        "schema:Store"
    ],
    "schema:WPHeader": [
        "schema:WebPageElement"
    ],
    "schema:TrainReservation": [
        "schema:Reservation"
    ],
    "schema:HowToSection": [
        "schema:ListItem",
        "schema:CreativeWork",
        "schema:ItemList"
    ],
    "schema:APIReference": [
        "schema:TechArticle"
    ],
    "schema:OnlineStore": [
        "schema:OnlineBusiness"
    ],
    "schema:VideoGallery": [
        "schema:MediaGallery"
    ],
    "schema:Motorcycle": [
        "schema:Vehicle"
    ],
    "schema:SoftwareSourceCode": [
        "schema:CreativeWork"
    ],
    "schema:AnalysisNewsArticle": [
        "schema:NewsArticle"
    ],
    "schema:3DModel": [
        "schema:MediaObject"
    ],
    "schema:MusicGroup": [
        "schema:PerformingGroup"
    ],
    "schema:Play": [
        "schema:CreativeWork"
    ],
    "schema:Guide": [
        "schema:CreativeWork"
    ],
    "schema:Geriatric": [
        "schema:MedicalBusiness"
    ],
    "schema:EducationEvent": [
        "schema:Event"
    ],
    "schema:Zoo": [
        "schema:CivicStructure"
    ],
    "schema:ArchiveComponent": [
        "schema:CreativeWork"
    ],
    "schema:TVSeason": [
        "schema:CreativeWorkSeason",
        "schema:CreativeWork"
    ],
    "schema:ShoppingCenter": [
        "schema:LocalBusiness"
    ],
    "schema:Recipe": [
        "schema:HowTo"
    ],
    "schema:Vehicle": [
        "schema:Product"
    ],
    "schema:Permit": [
        "schema:Intangible"
    ],
    "schema:CheckInAction": [
        "schema:CommunicateAction"
    ],
    "schema:MedicineSystem": [
        "schema:MedicalEnumeration"
    ],
    "schema:DonateAction": [
        "schema:TradeAction"
    ],
    "schema:Hotel": [
        "schema:LodgingBusiness"
    ],
    "schema:PostalCodeRangeSpecification": [
        "schema:StructuredValue"
    ],
    "schema:AchieveAction": [
        "schema:Action"
    ],
    "schema:CafeOrCoffeeShop": [
        "schema:FoodEstablishment"
    ],
    "schema:EmployeeRole": [
        "schema:OrganizationRole"
    ],
    "schema:TouristTrip": [
        "schema:Trip"
    ],
    "schema:ArtGallery": [
        "schema:EntertainmentBusiness"
    ],
    "schema:PathologyTest": [
        "schema:MedicalTest"
    ],
    "schema:OrganizationRole": [
        "schema:Role"
    ],
    "schema:QualitativeValue": [
        "schema:Enumeration"
    ],
    "schema:PeopleAudience": [
        "schema:Audience"
    ],
    "schema:BusStop": [
        "schema:CivicStructure"
    ],
    "schema:EntertainmentBusiness": [
        "schema:LocalBusiness"
    ],
    "schema:BloodTest": [
        "schema:MedicalTest"
    ],
    "schema:ReturnMethodEnumeration": [
        "schema:Enumeration"
    ],
    "schema:Suite": [
        "schema:Accommodation"
    ],
    "schema:GameAvailabilityEnumeration": [
        "schema:Enumeration"
    ],
    "schema:Comment": [
        "schema:CreativeWork"
    ],
    "schema:OfficeEquipmentStore": [
        "schema:Store"
    ],
    "schema:ShareAction": [
        "schema:CommunicateAction"
    ],
    "schema:BreadcrumbList": [
        "schema:ItemList"
    ],
    "schema:GeospatialGeometry": [
        "schema:Intangible"
    ],
    "schema:TouristDestination": [
        "schema:Place"
    ],
    "schema:WebContent": [
        "schema:CreativeWork"
    ],
    "schema:RoofingContractor": [
        "schema:HomeAndConstructionBusiness"
    ],
    "schema:MobilePhoneStore": [
        "schema:Store"
    ],
    "schema:WarrantyPromise": [
        "schema:StructuredValue"
    ],
    "schema:ListItem": [
        "schema:Intangible"
    ],
    "schema:EmailMessage": [
        "schema:Message"
    ],
    "schema:FAQPage": [
        "schema:WebPage"
    ],
    "schema:FindAction": [
        "schema:Action"
    ],
    "schema:RsvpResponseType": [
        "schema:Enumeration"
    ],
    "schema:Park": [
        "schema:CivicStructure"
    ],
    "schema:GovernmentOrganization": [
        "schema:Organization"
    ],
    "schema:RespiratoryTherapy": [
        "schema:MedicalTherapy"
    ],
    "schema:RealEstateListing": [
        "schema:WebPage"
    ],
    "schema:MedicalAudience": [
        "schema:Audience",
        "schema:PeopleAudience"
    ],
    "schema:EventReservation": [
        "schema:Reservation"
    ],
    "schema:DisagreeAction": [
        "schema:ReactAction"
    ],
    "schema:Pediatric": [
        "schema:MedicalBusiness"
    ],
    "schema:IceCreamShop": [
        "schema:FoodEstablishment"
    ],
    "schema:HinduTemple": [
        "schema:PlaceOfWorship"
    ],
    "schema:AccountingService": [
        "schema:FinancialService"
    ],
    "schema:PlanAction": [
        "schema:OrganizeAction"
    ],
    "schema:AmpStory": [
        "schema:CreativeWork",
        "schema:MediaObject"
    ],
    "schema:DanceGroup": [
        "schema:PerformingGroup"
    ],
    "schema:MedicalObservationalStudyDesign": [
        "schema:MedicalEnumeration"
    ],
    "schema:EmergencyService": [
        "schema:LocalBusiness"
    ],
    "schema:DrugPregnancyCategory": [
        "schema:MedicalEnumeration"
    ],
    "schema:DrugStrength": [
        "schema:MedicalIntangible"
    ],
    "schema:OpeningHoursSpecification": [
        "schema:StructuredValue"
    ],
    "schema:BefriendAction": [
        "schema:InteractAction"
    ],
    "schema:BioChemEntity": [
        "schema:Thing"
    ],
    "schema:HealthTopicContent": [
        "schema:WebContent"
    ],
    "schema:SizeSpecification": [
        "schema:QualitativeValue"
    ],
    "schema:HighSchool": [
        "schema:EducationalOrganization"
    ],
    "schema:ReviewAction": [
        "schema:AssessAction"
    ],
    "schema:MiddleSchool": [
        "schema:EducationalOrganization"
    ],
    "schema:Map": [
        "schema:CreativeWork"
    ],
    "schema:Drug": [
        "schema:Substance"
    ],
    "schema:StructuredValue": [
        "schema:Intangible"
    ],
    "schema:EUEnergyEfficiencyEnumeration": [
        "schema:EnergyEfficiencyEnumeration"
    ],
    "schema:Waterfall": [
        "schema:BodyOfWater"
    ],
    "schema:GardenStore": [
        "schema:Store"
    ],
    "schema:MedicalDevice": [
        "schema:MedicalEntity"
    ],
    "schema:MusicVenue": [
        "schema:CivicStructure"
    ],
    "schema:Property": [
        "schema:Intangible"
    ],
    "schema:MedicalSymptom": [
        "schema:MedicalSignOrSymptom"
    ],
    "schema:OceanBodyOfWater": [
        "schema:BodyOfWater"
    ],
    "schema:EmployerAggregateRating": [
        "schema:AggregateRating"
    ],
    "schema:PreOrderAction": [
        "schema:TradeAction"
    ],
    "schema:RejectAction": [
        "schema:AllocateAction"
    ],
    "schema:HowToItem": [
        "schema:ListItem"
    ],
    "schema:VideoObjectSnapshot": [
        "schema:VideoObject"
    ],
    "schema:ParentAudience": [
        "schema:PeopleAudience"
    ],
    "schema:ExerciseGym": [
        "schema:SportsActivityLocation"
    ],
    "schema:Photograph": [
        "schema:CreativeWork"
    ],
    "schema:DepartAction": [
        "schema:MoveAction"
    ],
    "schema:Audiobook": [
        "schema:AudioObject",
        "schema:Book"
    ],
    "schema:Residence": [
        "schema:Place"
    ],
    "schema:DeactivateAction": [
        "schema:ControlAction"
    ],
    "schema:MedicalGuidelineContraindication": [
        "schema:MedicalGuideline"
    ],
    "schema:Answer": [
        "schema:Comment"
    ],
    "schema:ResumeAction": [
        "schema:ControlAction"
    ],
    "schema:ReactAction": [
        "schema:AssessAction"
    ],
    "schema:Conversation": [
        "schema:CreativeWork"
    ],
    "schema:Plumber": [
        "schema:HomeAndConstructionBusiness"
    ],
    "schema:Organization": [
        "schema:Thing"
    ],
    "schema:FireStation": [
        "schema:CivicStructure",
        "schema:EmergencyService"
    ],
    "schema:Article": [
        "schema:CreativeWork"
    ],
    "schema:TrainStation": [
        "schema:CivicStructure"
    ],
    "schema:InsertAction": [
        "schema:AddAction"
    ],
    "schema:DepositAccount": [
        "schema:InvestmentOrDeposit",
        "schema:BankAccount"
    ],
    "schema:DefinedRegion": [
        "schema:StructuredValue"
    ],
    "schema:MediaGallery": [
        "schema:CollectionPage"
    ],
    "schema:ImagingTest": [
        "schema:MedicalTest"
    ],
    "schema:ImageObjectSnapshot": [
        "schema:ImageObject"
    ],
    "schema:MedicalOrganization": [
        "schema:Organization"
    ],
    "schema:UKNonprofitType": [
        "schema:NonprofitType"
    ],
    "schema:Ticket": [
        "schema:Intangible"
    ],
    "schema:HowToStep": [
        "schema:ListItem",
        "schema:ItemList",
        "schema:CreativeWork"
    ],
    "schema:Airport": [
        "schema:CivicStructure"
    ],
    "schema:Trip": [
        "schema:Intangible"
    ],
    "schema:LifestyleModification": [
        "schema:MedicalEntity"
    ],
    "schema:OrderItem": [
        "schema:Intangible"
    ],
    "schema:BlogPosting": [
        "schema:SocialMediaPosting"
    ],
    "schema:MerchantReturnPolicy": [
        "schema:Intangible"
    ],
    "schema:LikeAction": [
        "schema:ReactAction"
    ],
    "schema:Patient": [
        "schema:MedicalAudience",
        "schema:Person"
    ],
    "schema:MotorcycleDealer": [
        "schema:AutomotiveBusiness"
    ],
    "schema:Atlas": [
        "schema:CreativeWork"
    ],
    "schema:UserTweets": [
        "schema:UserInteraction"
    ],
    "schema:AskAction": [
        "schema:CommunicateAction"
    ],
    "schema:PodcastEpisode": [
        "schema:Episode"
    ],
    "schema:Bone": [
        "schema:AnatomicalStructure"
    ],
    "schema:MonetaryGrant": [
        "schema:Grant"
    ],
    "schema:EducationalAudience": [
        "schema:Audience"
    ],
    "schema:CompoundPriceSpecification": [
        "schema:PriceSpecification"
    ],
    "schema:BodyOfWater": [
        "schema:Landform"
    ],
    "schema:Season": [
        "schema:CreativeWork"
    ],
    "schema:SteeringPositionValue": [
        "schema:QualitativeValue"
    ],
    "schema:DataType": [
        "rdfs:Class"
    ],
    "schema:JoinAction": [
        "schema:InteractAction"
    ],
    "schema:GameServer": [
        "schema:Intangible"
    ],
    "schema:MediaSubscription": [
        "schema:Intangible"
    ],
    "schema:ClaimReview": [
        "schema:Review"
    ],
    "schema:Locksmith": [
        "schema:HomeAndConstructionBusiness"
    ],
    "schema:Attorney": [
        "schema:LegalService"
    ],
    "schema:RefundTypeEnumeration": [
        "schema:Enumeration"
    ],
    "schema:EnergyStarEnergyEfficiencyEnumeration": [
        "schema:EnergyEfficiencyEnumeration"
    ],
    "schema:MusicStore": [
        "schema:Store"
    ],
    "schema:ImageGallery": [
        "schema:MediaGallery"
    ],
    "schema:DDxElement": [
        "schema:MedicalIntangible"
    ],
    "schema:SoftwareApplication": [
        "schema:CreativeWork"
    ],
    "schema:ConfirmAction": [
        "schema:InformAction"
    ],
    "schema:UserCheckins": [
        "schema:UserInteraction"
    ],
    "schema:SizeGroupEnumeration": [
        "schema:Enumeration"
    ],
    "schema:SocialMediaPosting": [
        "schema:Article"
    ],
    "schema:HowToTool": [
        "schema:HowToItem"
    ],
    "schema:Ligament": [
        "schema:AnatomicalStructure"
    ],
    "schema:GameServerStatus": [
        "schema:StatusEnumeration"
    ],
    "schema:MedicalRiskEstimator": [
        "schema:MedicalEntity"
    ],
    "schema:Apartment": [
        "schema:Accommodation"
    ],
    "schema:WebPage": [
        "schema:CreativeWork"
    ],
    "schema:Preschool": [
        "schema:EducationalOrganization"
    ],
    "schema:HealthPlanNetwork": [
        "schema:Intangible"
    ],
    "schema:MedicalSpecialty": [
        "schema:Specialty",
        "schema:MedicalEnumeration"
    ],
    "schema:Resort": [
        "schema:LodgingBusiness"
    ],
    "schema:MedicalStudyStatus": [
        "schema:MedicalEnumeration"
    ],
    "schema:CourseInstance": [
        "schema:Event"
    ],
    "schema:HowTo": [
        "schema:CreativeWork"
    ],
    "schema:PublicationEvent": [
        "schema:Event"
    ],
    "schema:SomeProducts": [
        "schema:Product"
    ],
    "schema:Code": [
        "schema:CreativeWork"
    ],
    "schema:DiscoverAction": [
        "schema:FindAction"
    ],
    "schema:FinancialService": [
        "schema:LocalBusiness"
    ],
    "schema:EmploymentAgency": [
        "schema:LocalBusiness"
    ],
    "schema:InteractionCounter": [
        "schema:StructuredValue"
    ],
    "schema:LiveBlogPosting": [
        "schema:BlogPosting"
    ],
    "schema:AskPublicNewsArticle": [
        "schema:NewsArticle"
    ],
    "schema:Substance": [
        "schema:MedicalEntity"
    ],
    "schema:RadioSeason": [
        "schema:CreativeWorkSeason"
    ],
    "schema:CreativeWorkSeries": [
        "schema:CreativeWork",
        "schema:Series"
    ],
    "schema:BusinessEvent": [
        "schema:Event"
    ],
    "schema:AssessAction": [
        "schema:Action"
    ],
    "schema:EventSeries": [
        "schema:Series",
        "schema:Event"
    ],
    "schema:AudioObjectSnapshot": [
        "schema:AudioObject"
    ],
    "schema:BeautySalon": [
        "schema:HealthAndBeautyBusiness"
    ],
    "schema:FoodService": [
        "schema:Service"
    ],
    "schema:PodcastSeason": [
        "schema:CreativeWorkSeason"
    ],
    "schema:BusinessAudience": [
        "schema:Audience"
    ],
    "schema:AggregateOffer": [
        "schema:Offer"
    ],
    "schema:DeliveryMethod": [
        "schema:Enumeration"
    ],
    "schema:TechArticle": [
        "schema:Article"
    ],
    "schema:AdultEntertainment": [
        "schema:EntertainmentBusiness"
    ],
    "schema:NutritionInformation": [
        "schema:StructuredValue"
    ],
    "schema:Table": [
        "schema:WebPageElement"
    ],
    "schema:RadioChannel": [
        "schema:BroadcastChannel"
    ],
    "schema:UserDownloads": [
        "schema:UserInteraction"
    ],
    "schema:LodgingBusiness": [
        "schema:LocalBusiness"
    ],
    "schema:Series": [
        "schema:Intangible"
    ],
    "schema:Language": [
        "schema:Intangible"
    ],
    "schema:Podiatric": [
        "schema:MedicalBusiness"
    ],
    "schema:CollegeOrUniversity": [
        "schema:EducationalOrganization"
    ],
    "schema:Obstetric": [
        "schema:MedicalBusiness"
    ],
    "schema:TattooParlor": [
        "schema:HealthAndBeautyBusiness"
    ],
    "schema:DataFeed": [
        "schema:Dataset"
    ],
    "schema:TherapeuticProcedure": [
        "schema:MedicalProcedure"
    ],
    "schema:MusicEvent": [
        "schema:Event"
    ],
    "schema:TradeAction": [
        "schema:Action"
    ],
    "schema:Place": [
        "schema:Thing"
    ],
    "schema:MovieClip": [
        "schema:Clip"
    ],
    "schema:PublicationVolume": [
        "schema:CreativeWork"
    ],
    "schema:State": [
        "schema:AdministrativeArea"
    ],
    "schema:ComputerStore": [
        "schema:Store"
    ],
    "schema:ReceiveAction": [
        "schema:TransferAction"
    ],
    "schema:Pond": [
        "schema:BodyOfWater"
    ],
    "schema:AnatomicalSystem": [
        "schema:MedicalEntity"
    ],
    "schema:EndorseAction": [
        "schema:ReactAction"
    ],
    "schema:HousePainter": [
        "schema:HomeAndConstructionBusiness"
    ],
    "schema:EnergyConsumptionDetails": [
        "schema:Intangible"
    ],
    "schema:MedicalTherapy": [
        "schema:TherapeuticProcedure"
    ],
    "schema:EmployerReview": [
        "schema:Review"
    ],
    "schema:AutoBodyShop": [
        "schema:AutomotiveBusiness"
    ],
    "schema:DigitalPlatformEnumeration": [
        "schema:Enumeration"
    ],
    "schema:AutomatedTeller": [
        "schema:FinancialService"
    ],
    "schema:MedicalAudienceType": [
        "schema:MedicalEnumeration"
    ],
    "schema:GamePlayMode": [
        "schema:Enumeration"
    ],
    "schema:AgreeAction": [
        "schema:ReactAction"
    ],
    "schema:MedicalGuidelineRecommendation": [
        "schema:MedicalGuideline"
    ],
    "schema:OrderStatus": [
        "schema:StatusEnumeration"
    ],
    "schema:DigitalDocumentPermissionType": [
        "schema:Enumeration"
    ],
    "schema:TouristAttraction": [
        "schema:Place"
    ],
    "schema:Newspaper": [
        "schema:Periodical"
    ],
    "schema:GenderType": [
        "schema:Enumeration"
    ],
    "schema:USNonprofitType": [
        "schema:NonprofitType"
    ],
    "schema:ProfessionalService": [
        "schema:LocalBusiness"
    ],
    "schema:ServiceChannel": [
        "schema:Intangible"
    ],
    "schema:BusinessEntityType": [
        "schema:Enumeration"
    ],
    "schema:UserReview": [
        "schema:Review"
    ],
    "schema:ItemListOrderType": [
        "schema:Enumeration"
    ],
    "schema:DriveWheelConfigurationValue": [
        "schema:QualitativeValue"
    ],
    "schema:QAPage": [
        "schema:WebPage"
    ],
    "schema:ImageObject": [
        "schema:MediaObject"
    ],
    "schema:Protein": [
        "schema:BioChemEntity"
    ],
    "schema:AdvertiserContentArticle": [
        "schema:Article"
    ],
    "schema:BedType": [
        "schema:QualitativeValue"
    ],
    "schema:MonetaryAmount": [
        "schema:StructuredValue"
    ],
    "schema:Collection": [
        "schema:CreativeWork"
    ],
    "schema:GeoCoordinates": [
        "schema:StructuredValue"
    ],
    "schema:ActionAccessSpecification": [
        "schema:Intangible"
    ],
    "schema:HardwareStore": [
        "schema:Store"
    ],
    "schema:Gene": [
        "schema:BioChemEntity"
    ],
    "schema:TennisComplex": [
        "schema:SportsActivityLocation"
    ],
    "schema:TVEpisode": [
        "schema:Episode"
    ],
    "schema:CheckAction": [
        "schema:FindAction"
    ],
    "schema:PlaceOfWorship": [
        "schema:CivicStructure"
    ],
    "schema:Legislation": [
        "schema:CreativeWork"
    ],
    "schema:SpecialAnnouncement": [
        "schema:CreativeWork"
    ],
    "schema:LibrarySystem": [
        "schema:Organization"
    ],
    "schema:CollectionPage": [
        "schema:WebPage"
    ],
    "schema:MediaReview": [
        "schema:Review"
    ],
    "schema:ProfilePage": [
        "schema:WebPage"
    ],
    "schema:WarrantyScope": [
        "schema:Enumeration"
    ],
    "schema:HomeAndConstructionBusiness": [
        "schema:LocalBusiness"
    ],
    "schema:PhysicalTherapy": [
        "schema:MedicalTherapy"
    ],
    "schema:SkiResort": [
        "schema:SportsActivityLocation",
        "schema:Resort"
    ],
    "schema:FoodEstablishmentReservation": [
        "schema:Reservation"
    ],
    "schema:EventStatusType": [
        "schema:StatusEnumeration"
    ],
    "schema:PublicationIssue": [
        "schema:CreativeWork"
    ],
    "schema:CDCPMDRecord": [
        "schema:StructuredValue"
    ],
    "schema:ViewAction": [
        "schema:ConsumeAction"
    ],
    "schema:Integer": [
        "schema:Number"
    ],
    "schema:WriteAction": [
        "schema:CreateAction"
    ],
    "schema:Dentist": [
        "schema:MedicalOrganization",
        "schema:MedicalBusiness",
        "schema:LocalBusiness"
    ],
    "schema:Dermatology": [
        "schema:MedicalBusiness"
    ],
    "schema:Casino": [
        "schema:EntertainmentBusiness"
    ],
    "schema:MedicalEntity": [
        "schema:Thing"
    ],
    "schema:VideoGameClip": [
        "schema:Clip"
    ],
    "schema:TireShop": [
        "schema:Store"
    ],
    "schema:PrependAction": [
        "schema:InsertAction"
    ],
    "schema:WholesaleStore": [
        "schema:Store"
    ],
    "schema:Project": [
        "schema:Organization"
    ],
    "schema:ExchangeRateSpecification": [
        "schema:StructuredValue"
    ],
    "schema:MusicPlaylist": [
        "schema:CreativeWork"
    ],
    "schema:MapCategoryType": [
        "schema:Enumeration"
    ],
    "schema:RealEstateAgent": [
        "schema:LocalBusiness"
    ],
    "schema:WorkersUnion": [
        "schema:Organization"
    ],
    "schema:Role": [
        "schema:Intangible"
    ],
    "schema:CreativeWork": [
        "schema:Thing"
    ],
    "schema:DrugClass": [
        "schema:MedicalEntity"
    ],
    "schema:GeoCircle": [
        "schema:GeoShape"
    ],
    "schema:DrawAction": [
        "schema:CreateAction"
    ],
    "schema:ActivateAction": [
        "schema:ControlAction"
    ],
    "schema:Playground": [
        "schema:CivicStructure"
    ],
    "schema:OfferShippingDetails": [
        "schema:StructuredValue"
    ],
    "schema:MolecularEntity": [
        "schema:BioChemEntity"
    ],
    "schema:HyperToc": [
        "schema:CreativeWork"
    ],
    "schema:PostalAddress": [
        "schema:ContactPoint"
    ],
    "schema:TelevisionChannel": [
        "schema:BroadcastChannel"
    ],
    "schema:ShippingRateSettings": [
        "schema:StructuredValue"
    ],
    "schema:ElectronicsStore": [
        "schema:Store"
    ],
    "schema:PresentationDigitalDocument": [
        "schema:DigitalDocument"
    ],
    "schema:CityHall": [
        "schema:GovernmentBuilding"
    ],
    "schema:FundingAgency": [
        "schema:Project"
    ],
    "schema:Thesis": [
        "schema:CreativeWork"
    ],
    "schema:PublicHealth": [
        "schema:MedicalBusiness"
    ],
    "schema:LeaveAction": [
        "schema:InteractAction"
    ],
    "schema:MedicalBusiness": [
        "schema:LocalBusiness"
    ],
    "schema:SearchAction": [
        "schema:Action"
    ],
    "schema:SizeSystemEnumeration": [
        "schema:Enumeration"
    ],
    "schema:MonetaryAmountDistribution": [
        "schema:QuantitativeValueDistribution"
    ],
    "schema:Crematorium": [
        "schema:CivicStructure"
    ],
    "schema:DeliveryChargeSpecification": [
        "schema:PriceSpecification"
    ],
    "schema:MedicalWebPage": [
        "schema:WebPage"
    ],
    "schema:InviteAction": [
        "schema:CommunicateAction"
    ],
    "schema:DiagnosticLab": [
        "schema:MedicalOrganization"
    ],
    "schema:Psychiatric": [
        "schema:MedicalBusiness"
    ],
    "schema:MedicalTest": [
        "schema:MedicalEntity"
    ],
    "schema:WearableMeasurementTypeEnumeration": [
        "schema:MeasurementTypeEnumeration"
    ],
    "schema:Airline": [
        "schema:Organization"
    ],
    "schema:EatAction": [
        "schema:ConsumeAction"
    ],
    "schema:OnDemandEvent": [
        "schema:PublicationEvent"
    ],
    "schema:VideoGame": [
        "schema:SoftwareApplication",
        "schema:Game"
    ],
    "schema:LocationFeatureSpecification": [
        "schema:PropertyValue"
    ],
    "schema:ChildrensEvent": [
        "schema:Event"
    ],
    "schema:ProgramMembership": [
        "schema:Intangible"
    ],
    "schema:AnimalShelter": [
        "schema:LocalBusiness"
    ],
    "schema:AmusementPark": [
        "schema:EntertainmentBusiness"
    ],
    "schema:MedicalConditionStage": [
        "schema:MedicalIntangible"
    ],
    "schema:PayAction": [
        "schema:TradeAction"
    ],
    "schema:HealthPlanFormulary": [
        "schema:Intangible"
    ],
    "schema:DataDownload": [
        "schema:MediaObject"
    ],
    "schema:ReportageNewsArticle": [
        "schema:NewsArticle"
    ],
    "schema:WebPageElement": [
        "schema:CreativeWork"
    ],
    "schema:BrainStructure": [
        "schema:AnatomicalStructure"
    ],
    "schema:ProductModel": [
        "schema:Product"
    ],
    "schema:OnlineBusiness": [
        "schema:Organization"
    ],
    "schema:MusicReleaseFormatType": [
        "schema:Enumeration"
    ],
    "schema:MedicalObservationalStudy": [
        "schema:MedicalStudy"
    ],
    "schema:Class": [
        "schema:Intangible"
    ],
    "schema:RadioSeries": [
        "schema:CreativeWorkSeries"
    ],
    "schema:VisualArtsEvent": [
        "schema:Event"
    ],
    "schema:Canal": [
        "schema:BodyOfWater"
    ],
    "schema:FlightReservation": [
        "schema:Reservation"
    ],
    "schema:SatiricalArticle": [
        "schema:Article"
    ],
    "schema:WorkBasedProgram": [
        "schema:EducationalOccupationalProgram"
    ],
    "schema:Church": [
        "schema:PlaceOfWorship"
    ],
    "schema:GovernmentBuilding": [
        "schema:CivicStructure"
    ],
    "schema:Float": [
        "schema:Number"
    ],
    "schema:ClothingStore": [
        "schema:Store"
    ],
    "schema:CatholicChurch": [
        "schema:Church"
    ],
    "schema:BoatTrip": [
        "schema:Trip"
    ],
    "schema:ReservationStatusType": [
        "schema:StatusEnumeration"
    ],
    "schema:Researcher": [
        "schema:Audience"
    ],
    "schema:SportingGoodsStore": [
        "schema:Store"
    ],
    "schema:GovernmentBenefitsType": [
        "schema:Enumeration"
    ],
    "schema:TrainTrip": [
        "schema:Trip"
    ],
    "schema:SuperficialAnatomy": [
        "schema:MedicalEntity"
    ],
    "schema:Flight": [
        "schema:Trip"
    ],
    "schema:DatedMoneySpecification": [
        "schema:StructuredValue"
    ],
    "schema:FilmAction": [
        "schema:CreateAction"
    ],
    "schema:Consortium": [
        "schema:Organization"
    ],
    "schema:HowToDirection": [
        "schema:ListItem",
        "schema:CreativeWork"
    ],
    "schema:ComicStory": [
        "schema:CreativeWork"
    ],
    "schema:FoodEvent": [
        "schema:Event"
    ],
    "schema:ReserveAction": [
        "schema:PlanAction"
    ],
    "schema:ParkingFacility": [
        "schema:CivicStructure"
    ],
    "schema:DrugPrescriptionStatus": [
        "schema:MedicalEnumeration"
    ],
    "schema:PreventionIndication": [
        "schema:MedicalIndication"
    ],
    "schema:UserPlays": [
        "schema:UserInteraction"
    ],
    "schema:InvestmentFund": [
        "schema:InvestmentOrDeposit"
    ],
    "schema:EntryPoint": [
        "schema:Intangible"
    ],
    "schema:TransferAction": [
        "schema:Action"
    ],
    "schema:Barcode": [
        "schema:ImageObject"
    ],
    "schema:PodcastSeries": [
        "schema:CreativeWorkSeries"
    ],
    "schema:LiteraryEvent": [
        "schema:Event"
    ],
    "schema:Library": [
        "schema:LocalBusiness"
    ],
    "schema:MedicalSign": [
        "schema:MedicalSignOrSymptom"
    ],
    "schema:MediaManipulationRatingEnumeration": [
        "schema:Enumeration"
    ],
    "schema:WantAction": [
        "schema:ReactAction"
    ],
    "schema:DislikeAction": [
        "schema:ReactAction"
    ],
    "schema:Observation": [
        "schema:Intangible"
    ],
    "schema:AlignmentObject": [
        "schema:Intangible"
    ],
    "schema:MusicComposition": [
        "schema:CreativeWork"
    ],
    "schema:MedicalEnumeration": [
        "schema:Enumeration"
    ],
    "schema:PlasticSurgery": [
        "schema:MedicalBusiness"
    ],
    "schema:MedicalTrialDesign": [
        "schema:MedicalEnumeration"
    ],
    "schema:Optician": [
        "schema:MedicalBusiness"
    ],
    "schema:Brewery": [
        "schema:FoodEstablishment"
    ],
    "schema:TheaterGroup": [
        "schema:PerformingGroup"
    ],
    "schema:MedicalTestPanel": [
        "schema:MedicalTest"
    ],
    "schema:LinkRole": [
        "schema:Role"
    ],
    "schema:CampingPitch": [
        "schema:Accommodation"
    ],
    "schema:BookFormatType": [
        "schema:Enumeration"
    ],
    "schema:Question": [
        "schema:Comment"
    ],
    "schema:SiteNavigationElement": [
        "schema:WebPageElement"
    ],
    "schema:RiverBodyOfWater": [
        "schema:BodyOfWater"
    ],
    "schema:DownloadAction": [
        "schema:TransferAction"
    ],
    "schema:Bakery": [
        "schema:FoodEstablishment"
    ],
    "schema:MedicalCondition": [
        "schema:MedicalEntity"
    ],
    "schema:SportsOrganization": [
        "schema:Organization"
    ],
    "schema:Florist": [
        "schema:Store"
    ],
    "schema:UnRegisterAction": [
        "schema:InteractAction"
    ],
    "schema:Beach": [
        "schema:CivicStructure"
    ],
    "schema:Rating": [
        "schema:Intangible"
    ],
    "schema:ChemicalSubstance": [
        "schema:BioChemEntity"
    ],
    "schema:SurgicalProcedure": [
        "schema:MedicalProcedure"
    ],
    "schema:Taxi": [
        "schema:Service"
    ],
    "schema:BusTrip": [
        "schema:Trip"
    ],
    "schema:ReturnLabelSourceEnumeration": [
        "schema:Enumeration"
    ],
    "schema:MenuItem": [
        "schema:Intangible"
    ],
    "schema:TypeAndQuantityNode": [
        "schema:StructuredValue"
    ],
    "schema:Embassy": [
        "schema:GovernmentBuilding"
    ],
    "schema:HowToTip": [
        "schema:CreativeWork",
        "schema:ListItem"
    ],
    "schema:ControlAction": [
        "schema:Action"
    ],
    "schema:Quiz": [
        "schema:LearningResource"
    ],
    "schema:ComicCoverArt": [
        "schema:ComicStory",
        "schema:CoverArt"
    ],
    "schema:Quotation": [
        "schema:CreativeWork"
    ],
    "schema:MerchantReturnPolicySeasonalOverride": [
        "schema:Intangible"
    ],
    "schema:ReplaceAction": [
        "schema:UpdateAction"
    ],
    "schema:GeneralContractor": [
        "schema:HomeAndConstructionBusiness"
    ],
    "schema:DeliveryEvent": [
        "schema:Event"
    ],
    "schema:DigitalDocument": [
        "schema:CreativeWork"
    ],
    "schema:HomeGoodsStore": [
        "schema:Store"
    ],
    "schema:Menu": [
        "schema:CreativeWork"
    ],
    "schema:DryCleaningOrLaundry": [
        "schema:LocalBusiness"
    ],
    "schema:WPAdBlock": [
        "schema:WebPageElement"
    ],
    "schema:BookmarkAction": [
        "schema:OrganizeAction"
    ],
    "schema:Grant": [
        "schema:Intangible"
    ],
    "schema:SpreadsheetDigitalDocument": [
        "schema:DigitalDocument"
    ],
    "schema:JewelryStore": [
        "schema:Store"
    ],
    "schema:ResearchProject": [
        "schema:Project"
    ],
    "schema:SheetMusic": [
        "schema:CreativeWork"
    ],
    "schema:Offer": [
        "schema:Intangible"
    ],
    "schema:MusicRecording": [
        "schema:CreativeWork"
    ],
    "schema:MedicalCode": [
        "schema:MedicalIntangible",
        "schema:CategoryCode"
    ],
    "schema:Joint": [
        "schema:AnatomicalStructure"
    ],
    "schema:MoneyTransfer": [
        "schema:TransferAction"
    ],
    "schema:CssSelectorType": [
        "schema:Text"
    ],
    "schema:MenuSection": [
        "schema:CreativeWork"
    ],
    "schema:MedicalSignOrSymptom": [
        "schema:MedicalCondition"
    ],
    "schema:BankOrCreditUnion": [
        "schema:FinancialService"
    ],
    "schema:TreatmentIndication": [
        "schema:MedicalIndication"
    ],
    "schema:ItemList": [
        "schema:Intangible"
    ],
    "schema:TouristInformationCenter": [
        "schema:LocalBusiness"
    ],
    "schema:OfferCatalog": [
        "schema:ItemList"
    ],
    "schema:OccupationalTherapy": [
        "schema:MedicalTherapy"
    ],
    "schema:PaymentChargeSpecification": [
        "schema:PriceSpecification"
    ],
    "schema:BookSeries": [
        "schema:CreativeWorkSeries"
    ],
    "schema:NewsMediaOrganization": [
        "schema:Organization"
    ],
    "schema:ScholarlyArticle": [
        "schema:Article"
    ],
    "schema:BusinessFunction": [
        "schema:Enumeration"
    ],
    "schema:WebApplication": [
        "schema:SoftwareApplication"
    ],
    "schema:ExhibitionEvent": [
        "schema:Event"
    ],
    "schema:Audience": [
        "schema:Intangible"
    ],
    "schema:Artery": [
        "schema:Vessel"
    ],
    "schema:PerformingGroup": [
        "schema:Organization"
    ],
    "schema:MusicAlbumProductionType": [
        "schema:Enumeration"
    ],
    "schema:SingleFamilyResidence": [
        "schema:House"
    ],
    "schema:MedicalTrial": [
        "schema:MedicalStudy"
    ],
    "schema:EducationalOrganization": [
        "schema:CivicStructure",
        "schema:Organization"
    ],
    "schema:PsychologicalTreatment": [
        "schema:TherapeuticProcedure"
    ],
    "schema:VirtualLocation": [
        "schema:Intangible"
    ],
    "schema:Occupation": [
        "schema:Intangible"
    ],
    "schema:WPFooter": [
        "schema:WebPageElement"
    ],
    "schema:LoanOrCredit": [
        "schema:FinancialProduct"
    ],
    "schema:MedicalCause": [
        "schema:MedicalEntity"
    ],
    "schema:FollowAction": [
        "schema:InteractAction"
    ],
    "schema:CookAction": [
        "schema:CreateAction"
    ],
    "schema:UseAction": [
        "schema:ConsumeAction"
    ],
    "schema:EventVenue": [
        "schema:CivicStructure"
    ],
    "schema:BankAccount": [
        "schema:FinancialProduct"
    ],
    "schema:Hackathon": [
        "schema:Event"
    ],
    "schema:CreateAction": [
        "schema:Action"
    ],
    "schema:FurnitureStore": [
        "schema:Store"
    ],
    "schema:WearableSizeSystemEnumeration": [
        "schema:SizeSystemEnumeration"
    ],
    "schema:BorrowAction": [
        "schema:TransferAction"
    ],
    "schema:PropertyValue": [
        "schema:StructuredValue"
    ],
    "schema:DiagnosticProcedure": [
        "schema:MedicalProcedure"
    ],
    "schema:DrinkAction": [
        "schema:ConsumeAction"
    ],
    "schema:Pharmacy": [
        "schema:MedicalOrganization",
        "schema:MedicalBusiness"
    ],
    "schema:Room": [
        "schema:Accommodation"
    ],
    "schema:Otolaryngologic": [
        "schema:MedicalBusiness"
    ],
    "schema:TravelAction": [
        "schema:MoveAction"
    ],
    "schema:Recommendation": [
        "schema:Review"
    ],
    "schema:SeaBodyOfWater": [
        "schema:BodyOfWater"
    ],
    "schema:OccupationalExperienceRequirements": [
        "schema:Intangible"
    ],
    "schema:TVClip": [
        "schema:Clip"
    ],
    "schema:MedicalIntangible": [
        "schema:MedicalEntity"
    ],
    "schema:TakeAction": [
        "schema:TransferAction"
    ],
    "schema:HVACBusiness": [
        "schema:HomeAndConstructionBusiness"
    ],
    "schema:ComedyClub": [
        "schema:EntertainmentBusiness"
    ],
    "schema:RestrictedDiet": [
        "schema:Enumeration"
    ],
    "schema:MathSolver": [
        "schema:CreativeWork"
    ],
    "schema:LendAction": [
        "schema:TransferAction"
    ],
    "schema:VoteAction": [
        "schema:ChooseAction"
    ],
    "schema:MedicalIndication": [
        "schema:MedicalEntity"
    ],
    "schema:MedicalStudy": [
        "schema:MedicalEntity"
    ],
    "schema:Landform": [
        "schema:Place"
    ],
    "schema:DefenceEstablishment": [
        "schema:GovernmentBuilding"
    ],
    "schema:Poster": [
        "schema:CreativeWork"
    ],
    "schema:Reservoir": [
        "schema:BodyOfWater"
    ],
    "schema:GiveAction": [
        "schema:TransferAction"
    ],
    "schema:DigitalDocumentPermission": [
        "schema:Intangible"
    ],
    "schema:ReservationPackage": [
        "schema:Reservation"
    ],
    "schema:AnatomicalStructure": [
        "schema:MedicalEntity"
    ],
    "schema:DataCatalog": [
        "schema:CreativeWork"
    ],
    "schema:SeekToAction": [
        "schema:Action"
    ],
    "schema:Volcano": [
        "schema:Landform"
    ],
    "schema:MerchantReturnEnumeration": [
        "schema:Enumeration"
    ],
    "schema:Course": [
        "schema:LearningResource",
        "schema:CreativeWork"
    ],
    "schema:HealthPlanCostSharingSpecification": [
        "schema:Intangible"
    ],
    "schema:BusStation": [
        "schema:CivicStructure"
    ],
    "schema:Periodical": [
        "schema:CreativeWorkSeries"
    ],
    "schema:RadioClip": [
        "schema:Clip"
    ],
    "schema:XPathType": [
        "schema:Text"
    ],
    "schema:MaximumDoseSchedule": [
        "schema:DoseSchedule"
    ],
    "schema:ItemPage": [
        "schema:WebPage"
    ],
    "schema:Clip": [
        "schema:CreativeWork"
    ],
    "schema:UserComments": [
        "schema:UserInteraction"
    ],
    "schema:PublicToilet": [
        "schema:CivicStructure"
    ],
    "schema:AutoDealer": [
        "schema:AutomotiveBusiness"
    ],
    "schema:RegisterAction": [
        "schema:InteractAction"
    ],
    "schema:ScheduleAction": [
        "schema:PlanAction"
    ],
    "schema:TextDigitalDocument": [
        "schema:DigitalDocument"
    ],
    "schema:HealthInsurancePlan": [
        "schema:Intangible"
    ],
    "schema:MedicalDevicePurpose": [
        "schema:MedicalEnumeration"
    ],
    "schema:LiquorStore": [
        "schema:Store"
    ],
    "schema:AddAction": [
        "schema:UpdateAction"
    ],
    "schema:NightClub": [
        "schema:EntertainmentBusiness"
    ],
    "schema:ApplyAction": [
        "schema:OrganizeAction"
    ],
    "schema:HyperTocEntry": [
        "schema:CreativeWork"
    ],
    "schema:Vein": [
        "schema:Vessel"
    ],
    "schema:GovernmentService": [
        "schema:Service"
    ],
    "schema:UserInteraction": [
        "schema:Event"
    ],
    "schema:UserBlocks": [
        "schema:UserInteraction"
    ],
    "schema:VideoGameSeries": [
        "schema:CreativeWorkSeries"
    ],
    "schema:Quantity": [
        "schema:Intangible"
    ],
    "schema:Distance": [
        "schema:Quantity"
    ],
    "schema:StatisticalPopulation": [
        "schema:Intangible"
    ],
    "schema:Episode": [
        "schema:CreativeWork"
    ],
    "schema:InstallAction": [
        "schema:ConsumeAction"
    ],
    "schema:VitalSign": [
        "schema:MedicalSign"
    ],
    "schema:CommentAction": [
        "schema:CommunicateAction"
    ],
    "schema:WatchAction": [
        "schema:ConsumeAction"
    ],
    "schema:NoteDigitalDocument": [
        "schema:DigitalDocument"
    ],
    "schema:PaymentService": [
        "schema:FinancialProduct"
    ],
    "schema:Sculpture": [
        "schema:CreativeWork"
    ],
    "schema:Action": [
        "schema:Thing"
    ],
    "schema:PriceComponentTypeEnumeration": [
        "schema:Enumeration"
    ],
    "schema:FloorPlan": [
        "schema:Intangible"
    ],
    "schema:ActionStatusType": [
        "schema:StatusEnumeration"
    ]
}