[
  { "label": "additional name",
    "domain": ["CATEGORY_PERSON"],
    "range": [],
    "synonyms": [],
    "definition": "An additional name for a Person, can be used for a middle name."
  },
  { "label": "address",
    "domain": ["CATEGORY_PERSON", "CATEGORY_ORGANIZATION", "CATEGORY_EVENT", "CATEGORY_LOCATION"],
    "range": ["CATEGORY_LOCATION"],
    "synonyms": [],
    "definition": "Physical address of the item."
  },
  { "label": "affiliation",
    "domain": ["CATEGORY_PERSON"],
    "range": ["CATEGORY_ORGANIZATION"],
    "synonyms": [],
    "definition": "An Organisation that this person is affiliated with. For example, a school/university, a club, or a team."
  },
  { "label": "age",
    "domain": ["CATEGORY_PERSON"],
    "range": [],
    "synonyms": ["age, human age"],
    "definition": "Time elapsed since a person was born."
  },
  { "label": "amenity feature",
    "domain": ["CATEGORY_LOCATION"],
    "range": ["CATEGORY_LOCATION"],
    "synonyms": [],
    "definition": "An amenity feature (e.g. a characteristic or service) of the Accommodation. This generic property does not make a statement about whether the feature is included in an offer for the main accommodation or available at extra costs."
  },
  { "label": "audience",
    "domain": ["CATEGORY_EVENT", "CATEGORY_CREATIVE_WORK"],
    "range": ["CATEGORY_PERSON"],
    "synonyms": ["public"],
    "definition": "Group of people who participate in a show or encounter a work of art."
  },
  { "label": "author",
    "domain": ["CATEGORY_CREATIVE_WORK"],
    "range": ["CATEGORY_PERSON"],
    "synonyms": ["contributor"],
    "definition": "author or intellectual author of a linguistic work."
  },
  { "label": "award",
    "domain": ["CATEGORY_PERSON", "CATEGORY_ORGANIZATION", "CATEGORY_CREATIVE_WORK"],
    "range": [],
    "synonyms": ["medal", "honour", "honor", "prize"],
    "definition": "Something given to a person or a group of people to recognize their merit or excellence. Award or recognition received by a person, organisation or creative work."
  },
  { "label": "birth date",
    "domain": ["CATEGORY_PERSON"],
    "range": [],
    "synonyms": [],
    "definition": ""
  },
  { "label": "birth place",
    "domain": ["CATEGORY_PERSON"],
    "range": ["CATEGORY_LOCATION"],
    "synonyms": ["birth", "place", "born in", "POB", "birth place", "location born", "born at", "birth location"," location of birth", "birth city"],
    "definition": "Most specific known (e.g. city instead of country, or hospital instead of city) birth location of a person, animal or fictional character."
  },
  { "label": "character",
    "domain": ["CATEGORY_CREATIVE_WORK", "CATEGORY_EVENT"],
    "range": ["CATEGORY_PERSON"],
    "synonyms": [],
    "definition": "art figure"
  },
  { "label": "child",
    "domain": ["CATEGORY_PERSON"],
    "range": ["CATEGORY_PERSON"],
    "synonyms": ["children", "kid"],
    "definition": "Human between the stages of birth and puberty."
  },
  { "label": "city",
    "domain": ["CATEGORY_LOCATION"],
    "range": ["CATEGORY_LOCATION"],
    "synonyms": [],
    "definition": "A city or town."
  },
  { "label": "code",
    "domain": ["CATEGORY_ORGANIZATION"],
    "range": [],
    "synonyms": [],
    "definition": ""
  },
  { "label": "colleague",
    "domain": ["CATEGORY_PERSON"],
    "range": ["CATEGORY_PERSON"],
    "synonyms": [],
    "definition": "A colleague of the person. Supersedes colleagues."
  },
  { "label": "contained in place",
    "domain": ["CATEGORY_LOCATION"],
    "range": ["CATEGORY_LOCATION"],
    "synonyms": [],
    "definition": "The basic containment relation between a place and one that contains it. Supersedes containedIn. Inverse property: containsPlace."
  },
  { "label": "contains place",
    "domain": ["CATEGORY_LOCATION"],
    "range": ["CATEGORY_LOCATION"],
    "synonyms": [],
    "definition": "The basic containment relation between a place and another that it contains. Inverse property: containedInPlace."
  },
  { "label": "copyright",
    "domain": ["CATEGORY_CREATIVE_WORK"],
    "range": [],
    "synonyms": ["licence", "content license", "content licence", "copyright licence", "license", "software license"],
    "definition": "License under which this copyrighted work is released."
  },
  { "label": "country",
    "domain": ["CATEGORY_LOCATION"],
    "range": ["CATEGORY_LOCATION"],
    "synonyms": ["countries"],
    "definition": "Distinct region in geography; a broad term that can include political divisions or regions associated with distinct political characteristics."
  },
  { "label": "creation date",
    "domain": ["CATEGORY_CREATIVE_WORK"],
    "range": [],
    "synonyms": [],
    "definition": "The date on which the creative work was created or the item was added to a DataFeed."
  },
  { "label": "creator",
    "domain": ["CATEGORY_CREATIVE_WORK"],
    "range": ["CATEGORY_PERSON"],
    "synonyms": ["creator (possible)"],
    "definition": "For a creative work with considerable uncertainty about the author."
  },
  { "label": "death date",
    "domain": ["CATEGORY_PERSON"],
    "range": [],
    "synonyms": ["died on", "death date", "death", "DOD"],
    "definition": "Date when a person died."
  },
  { "label": "death place",
    "domain": ["CATEGORY_PERSON"],
    "range": ["CATEGORY_LOCATION"],
    "synonyms": ["POD", "location of death", "deathplace"],
    "definition": "Place where a person died."
  },
  { "label": "description",
    "domain": ["CATEGORY_PERSON", "CATEGORY_ORGANIZATION", "CATEGORY_LOCATION", "CATEGORY_EVENT", "CATEGORY_CREATIVE_WORK"],
    "range": [],
    "synonyms": [],
    "definition": ""
  },
  { "label": "dissolution date",
    "domain": ["CATEGORY_ORGANIZATION"],
    "range": [],
    "synonyms": [],
    "definition": "The date that this organisation was dissolved."
  },
  { "label": "duration",
    "domain": ["CATEGORY_EVENT"],
    "range": [],
    "synonyms": ["length of time", "time span", "time"],
    "definition": "Length of time of an event or process; quality of an event or process with beginning and end."
  },
  { "label": "editor",
    "domain": ["CATEGORY_CREATIVE_WORK"],
    "range": ["CATEGORY_PERSON", "CATEGORY_ORGANIZATION"],
    "synonyms": ["journal editor", "editors"],
    "definition": "Person who edits texts or publications."
  },
  { "label": "elevation",
    "domain": ["CATEGORY_LOCATION"],
    "range": [],
    "synonyms": [],
    "definition": "The elevation of a location (WGS 84). Values may be of the form 'NUMBER UNIT_OF_MEASUREMENT' (e.g., '1,000 m', '3,200 ft') while numbers alone should be assumed to be a value in meters."
  },
  { "label": "email",
    "domain": ["CATEGORY_PERSON", "CATEGORY_ORGANIZATION", "CATEGORY_EVENT"],
    "range": [],
    "synonyms": ["electronic mail", "e-mail"],
    "definition": "Method of exchanging digital messages between people over a network."
  },
  { "label": "employee",
    "domain": ["CATEGORY_ORGANIZATION"],
    "range": ["CATEGORY_PERSON"],
    "synonyms": [],
    "definition": "Someone working for this organisation. Supersedes employees."
  },
  { "label": "employer",
    "domain": ["CATEGORY_PERSON", "CATEGORY_ORGANIZATION"],
    "range": ["CATEGORY_PERSON", "CATEGORY_ORGANIZATION"],
    "synonyms": [],
    "definition": "Person or company that employs workers."
  },
  { "label": "encoding",
    "domain": ["CATEGORY_CREATIVE_WORK"],
    "range": [],
    "synonyms": ["character encodings", "encoding", "text encoding"],
    "definition": "System using a prescribed set of digital values to represent textual characters."
  },
  { "label": "end date",
    "domain": ["CATEGORY_EVENT"],
    "range": [],
    "synonyms": [],
    "definition": "The end date and time of the item (in ISO 8601 date format)."
  },
  { "label": "event",
    "domain": ["CATEGORY_LOCATION", "CATEGORY_EVENT", "CATEGORY_ORGANIZATION"],
    "range": ["CATEGORY_EVENT"],
    "synonyms": ["events", "happening", "happenings"],
    "definition": "Temporary and scheduled event, like a festival or competition (events, happening, happenings)."
  },
  { "label": "family name",
    "domain": ["CATEGORY_PERSON"],
    "range": [],
    "synonyms": [],
    "definition": ""
  },
  { "label": "first name",
    "domain": ["CATEGORY_PERSON"],
    "range": [],
    "synonyms": [],
    "definition": ""
  },
  { "label": "follows",
    "domain": ["CATEGORY_PERSON", "CATEGORY_ORGANIZATION", "CATEGORY_LOCATION", "CATEGORY_CREATIVE_WORK"],
    "range": ["CATEGORY_PERSON", "CATEGORY_ORGANIZATION", "CATEGORY_LOCATION", "CATEGORY_CREATIVE_WORK"],
    "synonyms": [],
    "definition": "The most generic uni-directional social relation."
  },
  { "label": "founder",
    "domain": ["CATEGORY_PERSON", "CATEGORY_ORGANIZATION"],
    "range": ["CATEGORY_ORGANIZATION"],
    "synonyms": [],
    "definition": ""
  },
  { "label": "founding date",
    "domain": ["CATEGORY_ORGANIZATION"],
    "range": [],
    "synonyms": [],
    "definition": "The date that this organisation was founded."
  },
  { "label": "friends",
    "domain": ["CATEGORY_PERSON"],
    "range": ["CATEGORY_PERSON"],
    "synonyms": [],
    "definition": ""
  },
  { "label": "gender",
    "domain": ["CATEGORY_PERSON"],
    "range": [],
    "synonyms": [],
    "definition": "Range of physical, mental, and behavioral characteristics distinguishing between masculinity and femininity."
  },
  { "label": "geo",
    "domain": ["CATEGORY_LOCATION"],
    "range": [],
    "synonyms": [],
    "definition": "The geo coordinates of the place."
  },
  { "label": "geo contains",
    "domain": ["CATEGORY_LOCATION"],
    "range": [],
    "synonyms": [],
    "definition": "Represents a relationship between two geometries (or the places they represent), relating a containing geometry to a contained geometry. \"a contains b iff no points of b lie in the exterior of a, and at least one point of the interior of b lies in the interior of a\". As defined in DE-9IM."
  },
  { "label": "geo covered by",
    "domain": ["CATEGORY_LOCATION"],
    "range": [],
    "synonyms": [],
    "definition": "Represents a relationship between two geometries (or the places they represent), relating a geometry to another that covers it. As defined in DE-9IM."
  },
  { "label": "geo covers",
    "domain": ["CATEGORY_LOCATION"],
    "range": [],
    "synonyms": [],
    "definition": "Represents a relationship between two geometries (or the places they represent), relating a covering geometry to a covered geometry. \"Every point of b is a point of (the interior or boundary of) a\". As defined in DE-9IM."
  },
  { "label": "geo crosses",
    "domain": ["CATEGORY_LOCATION"],
    "range": [],
    "synonyms": [],
    "definition": "Represents a relationship between two geometries (or the places they represent), relating a geometry to another that crosses it: \"a crosses b: they have some but not all interior points in common, and the dimension of the intersection is less than that of at least one of them\". As defined in DE-9IM."
  },
  { "label": "geo disjoint",
    "domain": ["CATEGORY_LOCATION"],
    "range": [],
    "synonyms": [],
    "definition": "Represents spatial relations in which two geometries (or the places they represent) are topologically disjoint: they have no point in common. They form a set of disconnected geometries.\" (a symmetric relationship, as defined in DE-9IM)"
  },
  { "label": "geo equals",
    "domain": ["CATEGORY_LOCATION"],
    "range": [],
    "synonyms": [],
    "definition": "Represents spatial relations in which two geometries (or the places they represent) are topologically equal, as defined in DE-9IM. \"Two geometries are topologically equal if their interiors intersect and no part of the interior or boundary of one geometry intersects the exterior of the other\" (a symmetric relationship)"
  },
  { "label": "geo intersect",
    "domain": ["CATEGORY_LOCATION"],
    "range": [],
    "synonyms": [],
    "definition": "Represents spatial relations in which two geometries (or the places they represent) have at least one point in common. As defined in DE-9IM."
  },
  { "label": "geo overlaps",
    "domain": ["CATEGORY_LOCATION"],
    "range": [],
    "synonyms": [],
    "definition": "Represents a relationship between two geometries (or the places they represent), relating a geometry to another that geospatially overlaps it, i.e. they have some but not all points in common. As defined in DE-9IM."
  },
  { "label": "geo touches",
    "domain": ["CATEGORY_LOCATION"],
    "range": [],
    "synonyms": [],
    "definition": "Represents spatial relations in which two geometries (or the places they represent) touch: they have at least one boundary point in common, but no interior points.\" (a symmetric relationship, as defined in DE-9IM )"
  },
  { "label": "geo within",
    "domain": ["CATEGORY_LOCATION"],
    "range": [],
    "synonyms": [],
    "definition": "Represents a relationship between two geometries (or the places they represent), relating a geometry to one that contains it, i.e. it is inside (i.e. within) its interior. As defined in DE-9IM."
  },
  { "label": "given name",
    "domain": ["CATEGORY_PERSON"],
    "range": [],
    "synonyms": ["first name", "given names"],
    "definition": "Name typically used to differentiate people from the same family, clan, or other social group who have a common last name."
  },
  { "label": "has occupation",
    "domain": ["CATEGORY_PERSON"],
    "range": [],
    "synonyms": ["non-professional work activity", "occupations", "non-professional work activities"],
    "definition": "Label applied to a person based on an activity they participate in."
  },
  { "label": "home location",
    "domain": ["CATEGORY_PERSON"],
    "range": ["CATEGORY_LOCATION"],
    "synonyms": [],
    "definition": "A contact location for a person's residence."
  },
  { "label": "honorific prefix",
    "domain": ["CATEGORY_PERSON"],
    "range": [],
    "synonyms": [],
    "definition": "An honorific prefix preceding a Person's name such as Dr/Mrs/Mr."
  },
  { "label": "honorific title",
    "domain": ["CATEGORY_PERSON"],
    "range": [],
    "synonyms": [],
    "definition": "An honorific title preceding a Person's name such as Professor/Mister/Miss."
  },
  { "label": "landscape",
    "domain": ["CATEGORY_LOCATION"],
    "range": ["CATEGORY_LOCATION"],
    "synonyms": [],
    "definition": "Visible features of an area of land."
  },
  { "label": "language",
    "domain": ["CATEGORY_PERSON", "CATEGORY_LOCATION", "CATEGORY_CREATIVE_WORK"],
    "range": [],
    "synonyms": ["idiom", "particular language", "lang", "languages", "idioms"],
    "definition": "Particular system of communication, usually named for the region or peoples that use it."
  },
  { "label": "latitude",
    "domain": ["CATEGORY_LOCATION"],
    "range": [],
    "synonyms": [],
    "definition": "The latitude of a location. For example 37.42242 (WGS 84)."
  },
  { "label": "lei code",
    "domain": ["CATEGORY_ORGANIZATION"],
    "range": [],
    "synonyms": [],
    "definition": "An organisation identifier that uniquely identifies a legal entity as defined in ISO 17442."
  },
  { "label": "license",
    "domain": ["CATEGORY_CREATIVE_WORK"],
    "range": [],
    "synonyms": ["permit", "licence", "grant license", "user license", "rights statement"],
    "definition": "Set of permissions and restrictions to use something."
  },
  { "label": "location",
    "domain": ["CATEGORY_EVENT", "CATEGORY_ORGANIZATION"],
    "range": ["CATEGORY_LOCATION"],
    "synonyms": ["movable object location", "located in", "event location", "venue", "is in", "location of item", "place held", "based in", "neighborhood", "region", "in", "located", "locality", "locale"],
    "definition": "Location of the object, structure or event. In the case of an administrative entity as containing item use P131. In the case of a geographic entity use P706."
  },
  { "label": "logo",
    "domain": ["CATEGORY_ORGANIZATION", "CATEGORY_EVENT"],
    "range": [],
    "synonyms": [],
    "definition": "An associated logo."
  },
  { "label": "longitude",
    "domain": ["CATEGORY_LOCATION"],
    "range": [],
    "synonyms": [],
    "definition": "The longitude of a location. For example -122.08585 (WGS 84)."
  },
  { "label": "marital status",
    "domain": ["CATEGORY_PERSON"],
    "range": [],
    "synonyms": [],
    "definition": "Indicates whether the person is married (examples: married, single, divorced, and widowed)."
  },
  { "label": "name",
    "domain": ["CATEGORY_PERSON", "CATEGORY_ORGANIZATION", "CATEGORY_LOCATION", "CATEGORY_EVENT", "CATEGORY_CREATIVE_WORK"],
    "range": [],
    "synonyms": ["given name"],
    "definition": "Word or term used for identification."
  },
  { "label": "nationality",
    "domain": ["CATEGORY_PERSON", "CATEGORY_LOCATION"],
    "range": ["CATEGORY_LOCATION"],
    "synonyms": [],
    "definition": "Usually a person's nationality is usually acquired at birth by descent from either parent to those born within the territory of the state."
  },
  { "label": "number of employees",
    "domain": ["CATEGORY_ORGANIZATION"],
    "range": [],
    "synonyms": [],
    "definition": "The number of employees in an organisation e.g. business."
  },
  { "label": "number of participants",
    "domain": ["CATEGORY_EVENT"],
    "range": [],
    "synonyms": ["participant count", "participants", "qty participants", "number of teams"],
    "definition": "Number of participants of an event, e.g. people or groups of people that take part in the event (NO units)."
  },
  { "label": "organizer",
    "domain": ["CATEGORY_EVENT"],
    "range": ["CATEGORY_EVENT", "CATEGORY_PERSON"],
    "synonyms": ["organiser", "event producer", "planner", "event planner", "wedding planner", "party planner", "convention organizer", "meeting organizer", "exhibition organizer"],
    "definition": "Person specializing in planning and execution of parties, events, exhibitions, meetings, conventions, weddings and other things."
  },
  { "label": "parent",
    "domain": ["CATEGORY_PERSON"],
    "range": ["CATEGORY_PERSON"],
    "synonyms": ["parents", "mother", "father", "mothers", "fathers"],
    "definition": "Progenitor or caregiver of the offspring in their own species."
  },
  { "label": "parent organisation",
    "domain": ["CATEGORY_ORGANIZATION"],
    "range": ["CATEGORY_ORGANIZATION"],
    "synonyms": [],
    "definition": "The larger organisation that this organisation is a subOrganisation of, if any. Supersedes branchOf. Inverse property: subOrganisation."
  },
  { "label": "participant",
    "domain": ["CATEGORY_EVENT"],
    "range": ["CATEGORY_PERSON", "CATEGORY_ORGANIZATION"],
    "synonyms": ["participants", "attendee", "player", "competitor", "party", "event participant", "agent", "belligerents", "between", "suspect", "accused"],
    "definition": "Person, group of people or organisation (object) that actively takes/took part in an event or process (subject). Preferably qualify with \"object has role\" (P3831). Use P1923 for participants that are teams."
  },
  { "label": "phone number",
    "domain": ["CATEGORY_PERSON", "CATEGORY_ORGANIZATION", "CATEGORY_EVENT"],
    "range": [],
    "synonyms": ["tel:", "phone", "telephone", "phone number"],
    "definition": "Unique sequence of digits assigned to a telephone subscription."
  },
  { "label": "postal code",
    "domain": ["CATEGORY_LOCATION"],
    "range": [],
    "synonyms": ["post code", "zip code", "postcode", "zipcode", "ZIP+4", "PIN Code", "postal index number"],
    "definition": "Identifier assigned by postal authorities for the subject area or building."
  },
  { "label": "pseudonym",
    "domain": ["CATEGORY_PERSON"],
    "range": [],
    "synonyms": ["assumed name", "alias"],
    "definition": "Name that a person or group assumes for a particular purpose, which differs from their original or true name (orthonym)."
  },
  { "label": "publication date",
    "domain": ["CATEGORY_CREATIVE_WORK"],
    "range": [],
    "synonyms": ["first released", "first published", "air date", "pubdate", "date of first publication", "first publication", "airdate", "release datedate published", "date released", "published", "dop", "year of publication", "initial release", "date of release", "date of publication", "released", "time of publication", "publication", "publication time", "launched", "launch date", "released in"],
    "definition": "Date or point in time when a work was first published or released."
  },
  { "label": "publication",
    "domain": ["CATEGORY_PERSON"],
    "range": ["CATEGORY_CREATIVE_WORK"],
    "synonyms": [],
    "definition": "The publication made by a person."
  },
  { "label": "publications",
    "domain": ["CATEGORY_PERSON"],
    "range": [],
    "synonyms": [],
    "definition": "A link to the publications of this person."
  },
  { "label": "publisher",
    "domain": ["CATEGORY_CREATIVE_WORK"],
    "range": ["CATEGORY_PERSON", "CATEGORY_ORGANIZATION"],
    "synonyms": ["publishing company", "publishing house"],
    "definition": "Organisation that prints and distributes pressed goods or electronic media."
  },
  { "label": "rating",
    "domain": ["CATEGORY_ORGANIZATION", "CATEGORY_LOCATION", "CATEGORY_EVENT", "CATEGORY_CREATIVE_WORK"],
    "range": [],
    "synonyms": [],
    "definition": "Qualifier to indicate a score given by the referenced source indicating the quality or completeness of the statement."
  },
  { "label": "region",
    "domain": ["CATEGORY_LOCATION"],
    "range": ["CATEGORY_LOCATION"],
    "synonyms": ["region", "geographical region", "place", "delimited region", "bounded region", "bounded area", "geographical area", "geographic area"],
    "definition": "2D or 3D defined space, mainly in terrestrial and astrophysics sciences."
  },
  { "label": "salary",
    "domain": ["CATEGORY_PERSON"],
    "range": [],
    "synonyms": ["base salary", "salaried"],
    "definition": "Remuneration paid by an employer to an employee periodically, rather than based on actual time worked."
  },
  { "label": "school home page",
    "domain": ["CATEGORY_ORGANIZATION", "CATEGORY_PERSON"],
    "range": ["CATEGORY_ORGANIZATION"],
    "synonyms": [],
    "definition": ""
  },
  { "label": "slogan",
    "domain": ["CATEGORY_ORGANIZATION", "CATEGORY_PERSON"],
    "range": [],
    "synonyms": [],
    "definition": "A slogan or motto associated with the item."
  },
  { "label": "social media",
    "domain": ["CATEGORY_PERSON", "CATEGORY_ORGANIZATION"],
    "range": ["CATEGORY_PERSON", "CATEGORY_ORGANIZATION"],
    "synonyms": ["Social Media"],
    "definition": "Interaction among people in which they create, share, and/or exchange information and ideas in virtual communities and networks."
  },
  { "label": "speaker",
    "domain": ["CATEGORY_EVENT", "CATEGORY_CREATIVE_WORK"],
    "range": ["CATEGORY_PERSON"],
    "synonyms": [],
    "definition": "Person who is speaker for this event, ceremony, keynote, presentation or in a literary work."
  },
  { "label": "sponsor",
    "domain": ["CATEGORY_EVENT", "CATEGORY_PERSON", "CATEGORY_ORGANIZATION"],
    "range": ["CATEGORY_PERSON", "CATEGORY_ORGANIZATION"],
    "synonyms": ["patron"],
    "definition": "Commercial supporter of an event, activity, or person."
  },
  { "label": "spouse",
    "domain": ["CATEGORY_PERSON"],
    "range": ["CATEGORY_PERSON"],
    "synonyms": ["spouses"],
    "definition": "Partner in a marriage, civil union, domestic partnership or common-law marriage."
  },
  { "label": "start date",
    "domain": ["CATEGORY_EVENT"],
    "range": [],
    "synonyms": [],
    "definition": "The start date and time of the item (in ISO 8601 date format)."
  },
  { "label": "street",
    "domain": ["CATEGORY_LOCATION"],
    "range": ["CATEGORY_LOCATION"],
    "synonyms": ["St."],
    "definition": "Public thoroughfare in a built environment."
  },
  { "label": "sub-event",
    "domain": ["CATEGORY_EVENT"],
    "range": ["CATEGORY_EVENT"],
    "synonyms": [],
    "definition": "An event that is part of this event. For example, a conference event includes many presentations, each of which is a subEvent of the conference."
  },
  { "label": "sub-organisation",
    "domain": ["CATEGORY_ORGANIZATION"],
    "range": ["CATEGORY_ORGANIZATION"],
    "synonyms": [],
    "definition": "A relationship between two organisations where the first includes the second, e.g., as a subsidiary. See also: the more specific 'department' property. Inverse property: parentOrganisation."
  },
  { "label": "subject",
    "domain": ["CATEGORY_EVENT", "CATEGORY_CREATIVE_WORK", "CATEGORY_ORGANIZATION"],
    "range": [],
    "synonyms": ["index term", "topic of work", "main topic", "about", "topic", "subject", "subject heading", "mainly about", "theme", "main issue", "main thing", "keyword", "is about", "primary topic", "primary subject", "describes", "artistic theme", "mentions", "refers to", "sitter", "regards", "regarding", "in regards to", "content is about", "content describes", "content deals with", "has a subject", "common topic", "subject", "plot keyword"],
    "definition": "Primary topic of a work (see also P180: depicts)."
  },
  { "label": "super-event",
    "domain": ["CATEGORY_EVENT"],
    "range": ["CATEGORY_EVENT"],
    "synonyms": [],
    "definition": "An event that this event is a part of. For example, a collection of individual music performances might each have a music festival as their superEvent."
  },
  { "label": "tax id",
    "domain": ["CATEGORY_ORGANIZATION", "CATEGORY_PERSON"],
    "range": [],
    "synonyms": [],
    "definition": "The Tax / Fiscal ID of the organisation or person, e.g. the TIN in the US or the CIF/NIF in Spain."
  },
  { "label": "title",
    "domain": ["CATEGORY_CREATIVE_WORK"],
    "range": ["CATEGORY_CREATIVE_WORK"],
    "synonyms": [],
    "definition": ""
  },
  { "label": "website",
    "domain": ["CATEGORY_PERSON", "CATEGORY_ORGANIZATION", "CATEGORY_EVENT"],
    "range": [],
    "synonyms": ["World Wide Web site", "web site", "site", "WWW site", "Internet site"],
    "definition": "Set of related web pages served from a single web domain."
  },
  { "label": "works for",
    "domain": ["CATEGORY_PERSON", "CATEGORY_ORGANIZATION"],
    "range": ["CATEGORY_ORGANIZATION"],
    "synonyms": [],
    "definition": ""
  },
  {
    "label": "works place",
    "domain": ["CATEGORY_PERSON", "CATEGORY_ORGANIZATION"],
    "range": ["CATEGORY_LOCATION"],
    "synonyms": [],
    "definition": ""
  }
]