[
    {
        "name": "AB Corp.",
        "ceo": "Jean Bond",
        "headquarters": "Reims",
        "branch_offices": [
            "Cannes",
            "Le Tampon"
        ]
    },
    {
        "name": "BC Inc.",
        "ceo": "Tom Bernard",
        "headquarters": "Limoges",
        "branch_offices": [
            "Rouen",
            "Dunkerque"
        ]
    },
    {
        "name": "CD SARL",
        "ceo": "John Doe",
        "headquarters": "Saint-Denis",
        "branch_offices": [
            "Calais",
            "Tours"
        ]
    },
    {
        "name": "Deutsche Post",
        "ceo": "B\u00f6rje Ekholm",
        "headquarters": "Saint-Paul",
        "branch_offices": [
            "Ivry-sur-Seine",
            "Lyon"
        ]
    },
    {
        "name": "Agenus",
        "ceo": "Harald Kr\u00fcger",
        "headquarters": "Tours",
        "branch_offices": [
            "Noisy-le-Grand",
            "Saint-Denis"
        ]
    },
    {
        "name": "HCL Technologies",
        "ceo": "Abigail Johnson",
        "headquarters": "Rennes",
        "branch_offices": [
            "Besan\u00e7on",
            "B\u00e9ziers"
        ]
    },
    {
        "name": "Citigroup",
        "ceo": "Les Wexner",
        "headquarters": "Champigny-sur-Marne",
        "branch_offices": [
            "Colombes",
            "Saint-Paul"
        ]
    },
    {
        "name": "Land Securities",
        "ceo": "Isaac Larian",
        "headquarters": "Neuilly-sur-Seine",
        "branch_offices": [
            "Neuilly-sur-Seine",
            "Dunkerque"
        ]
    },
    {
        "name": "Amazon.com",
        "ceo": "Charles Woodburn",
        "headquarters": "Strasbourg",
        "branch_offices": [
            "Noum\u00e9a",
            "Saint-Denis"
        ]
    },
    {
        "name": "MicroStrategy",
        "ceo": "Leslie Moonves",
        "headquarters": "Bourges",
        "branch_offices": [
            "Chamb\u00e9ry",
            "Colmar"
        ]
    },
    {
        "name": "FedEx",
        "ceo": "Brian L. Roberts",
        "headquarters": "Mamoudzou",
        "branch_offices": [
            "Colombes",
            "Pau"
        ]
    },
    {
        "name": "Dr. Reddy's",
        "ceo": "Bob Dudley",
        "headquarters": "Antony",
        "branch_offices": [
            "Reims",
            "Chamb\u00e9ry"
        ]
    },
    {
        "name": "Anthem Inc.",
        "ceo": "Scott Etzler",
        "headquarters": "Reims",
        "branch_offices": [
            "B\u00e9ziers",
            "Lyon"
        ]
    },
    {
        "name": "Kaplan, Inc.",
        "ceo": "Darius Adamczyk",
        "headquarters": "Calais",
        "branch_offices": [
            "Noum\u00e9a",
            "Ivry-sur-Seine"
        ]
    },
    {
        "name": "HSBC",
        "ceo": "Lakshmi Niwas Mittal",
        "headquarters": "M\u00e9rignac",
        "branch_offices": [
            "Boulogne-Billancourt",
            "Lyon"
        ]
    },
    {
        "name": "Agenus",
        "ceo": "Lakshmi Niwas Mittal",
        "headquarters": "Ivry-sur-Seine",
        "branch_offices": [
            "Caen",
            "Reims"
        ]
    },
    {
        "name": "HP Hood LLC",
        "ceo": "Devin Wenig",
        "headquarters": "Clichy",
        "branch_offices": [
            "Dijon",
            "Villejuif"
        ]
    },
    {
        "name": "Hewlett Packard Enterprise",
        "ceo": "Salil Parekh",
        "headquarters": "Saint-Maur-des-Foss\u00e9s",
        "branch_offices": [
            "Tours",
            "Argenteuil"
        ]
    },
    {
        "name": "Coca-Cola",
        "ceo": "Hubert Joly",
        "headquarters": "Clermont-Ferrand",
        "branch_offices": [
            "Issy-les-Moulineaux",
            "Annecy"
        ]
    },
    {
        "name": "Bank of America",
        "ceo": "Carlos Torres Vila",
        "headquarters": "Perpignan",
        "branch_offices": [
            "Orl\u00e9ans",
            "Le Tampon"
        ]
    },
    {
        "name": "Cognizant",
        "ceo": "Jes Staley",
        "headquarters": "Niort",
        "branch_offices": [
            "Bourges",
            "Saint-Denis"
        ]
    },
    {
        "name": "Boeing",
        "ceo": "Joseph R. Swedish",
        "headquarters": "Angers",
        "branch_offices": [
            "Valence",
            "Versailles"
        ]
    },
    {
        "name": "BHP Billiton",
        "ceo": "Charles Scharf",
        "headquarters": "Issy-les-Moulineaux",
        "branch_offices": [
            "Lyon",
            "Roubaix"
        ]
    },
    {
        "name": "Google",
        "ceo": "Andrew S. Rosen",
        "headquarters": "Pau",
        "branch_offices": [
            "Antony",
            "Dijon"
        ]
    },
    {
        "name": "Microsoft",
        "ceo": "Steven A. Kandarian",
        "headquarters": "Saint-Denis",
        "branch_offices": [
            "Rennes",
            "Chamb\u00e9ry"
        ]
    },
    {
        "name": "Lockheed Martin",
        "ceo": "Brian Krzanich",
        "headquarters": "Troyes",
        "branch_offices": [
            "Argenteuil",
            "Saint-Quentin"
        ]
    },
    {
        "name": "HSBC",
        "ceo": "Steven A. Kandarian",
        "headquarters": "Annecy",
        "branch_offices": [
            "Paris",
            "N\u00eemes"
        ]
    },
    {
        "name": "Boeing",
        "ceo": "Steven A. Kandarian",
        "headquarters": "Saint-Nazaire",
        "branch_offices": [
            "Antony",
            "Paris"
        ]
    },
    {
        "name": "Exxon Mobil",
        "ceo": "Carlos Torres Vila",
        "headquarters": "N\u00eemes",
        "branch_offices": [
            "Champigny-sur-Marne",
            "Antibes"
        ]
    },
    {
        "name": "Agenus",
        "ceo": "Mary T. Barra",
        "headquarters": "Saint-Paul",
        "branch_offices": [
            "Annecy",
            "Villeneuve-d'Ascq"
        ]
    },
    {
        "name": "Blackstone Group",
        "ceo": "Abigail Johnson",
        "headquarters": "Saint-Paul",
        "branch_offices": [
            "Villeneuve-d'Ascq",
            "Aulnay-sous-Bois"
        ]
    },
    {
        "name": "Campbell Soup Company",
        "ceo": "James Dimon",
        "headquarters": "Levallois-Perret",
        "branch_offices": [
            "Ivry-sur-Seine",
            "Argenteuil"
        ]
    },
    {
        "name": "Land Securities",
        "ceo": "Steve Rowe",
        "headquarters": "Brest",
        "branch_offices": [
            "Le Havre",
            "Roubaix"
        ]
    },
    {
        "name": "General Dynamics",
        "ceo": "Leslie Moonves",
        "headquarters": "Nanterre",
        "branch_offices": [
            "Antibes",
            "Issy-les-Moulineaux"
        ]
    },
    {
        "name": "Citigroup",
        "ceo": "Rich Lesser",
        "headquarters": "Mulhouse",
        "branch_offices": [
            "Mamoudzou",
            "Poitiers"
        ]
    },
    {
        "name": "American Express",
        "ceo": "Stephen A. Schwarzman",
        "headquarters": "Cr\u00e9teil",
        "branch_offices": [
            "Toulon",
            "Issy-les-Moulineaux"
        ]
    },
    {
        "name": "JP Morgan Chase",
        "ceo": "Lakshmi Niwas Mittal",
        "headquarters": "La Rochelle",
        "branch_offices": [
            "Angers",
            "Montauban"
        ]
    },
    {
        "name": "Fidelity Investments",
        "ceo": "Jes Staley",
        "headquarters": "Saint-Pierre",
        "branch_offices": [
            "Orl\u00e9ans",
            "Ivry-sur-Seine"
        ]
    },
    {
        "name": "Google",
        "ceo": "Harald Kr\u00fcger",
        "headquarters": "Sarcelles",
        "branch_offices": [
            "Saint-Quentin",
            "Aix-en-Provence"
        ]
    },
    {
        "name": "MetLife",
        "ceo": "Kenneth Chenault",
        "headquarters": "Orl\u00e9ans",
        "branch_offices": [
            "Aulnay-sous-Bois",
            "Nancy"
        ]
    },
    {
        "name": "Eastman Kodak",
        "ceo": "Andr\u00e9 Bier Gerdau Johannpeter",
        "headquarters": "Montpellier",
        "branch_offices": [
            "Roubaix",
            "Dunkerque"
        ]
    },
    {
        "name": "MetLife",
        "ceo": "Dominic Barton",
        "headquarters": "Dunkerque",
        "branch_offices": [
            "Mamoudzou",
            "Dijon"
        ]
    },
    {
        "name": "Morgan Stanley",
        "ceo": "Steve Rowe",
        "headquarters": "Montauban",
        "branch_offices": [
            "Cannes",
            "M\u00e9rignac"
        ]
    },
    {
        "name": "Berkshire Hathaway",
        "ceo": "James Dimon",
        "headquarters": "Nice",
        "branch_offices": [
            "Caen",
            "Bourges"
        ]
    },
    {
        "name": "FedEx",
        "ceo": "Emma Walmsley",
        "headquarters": "Sarcelles",
        "branch_offices": [
            "Saint-Nazaire",
            "Colombes"
        ]
    },
    {
        "name": "Boeing",
        "ceo": "James Hackett",
        "headquarters": "Limoges",
        "branch_offices": [
            "Poitiers",
            "Reims"
        ]
    },
    {
        "name": "Arcelor Mittal",
        "ceo": "Sundar Pichai",
        "headquarters": "Asni\u00e8res-sur-Seine",
        "branch_offices": [
            "Grenoble",
            "B\u00e9ziers"
        ]
    },
    {
        "name": "Land Securities",
        "ceo": "James Hackett",
        "headquarters": "Cayenne",
        "branch_offices": [
            "Cergy",
            "Le Mans"
        ]
    },
    {
        "name": "Adobe Systems",
        "ceo": "Charles Scharf",
        "headquarters": "Perpignan",
        "branch_offices": [
            "Boulogne-Billancourt",
            "Le Havre"
        ]
    },
    {
        "name": "HSBC",
        "ceo": "Jeff Clarke",
        "headquarters": "Versailles",
        "branch_offices": [
            "Bordeaux",
            "Mamoudzou"
        ]
    },
    {
        "name": "Boston Consulting Group",
        "ceo": "Lloyd Blankfein",
        "headquarters": "Tours",
        "branch_offices": [
            "Amiens",
            "Champigny-sur-Marne"
        ]
    },
    {
        "name": "Apple Inc.",
        "ceo": "Harald Kr\u00fcger",
        "headquarters": "Le Havre",
        "branch_offices": [
            "Calais",
            "Dijon"
        ]
    },
    {
        "name": "IBM",
        "ceo": "Harald Kr\u00fcger",
        "headquarters": "Mamoudzou",
        "branch_offices": [
            "Saint-Nazaire",
            "La Rochelle"
        ]
    },
    {
        "name": "J.Crew",
        "ceo": "Brian Krzanich",
        "headquarters": "Aubervilliers",
        "branch_offices": [
            "Ajaccio",
            "Poitiers"
        ]
    },
    {
        "name": "Jefferies Group",
        "ceo": "Jim Umpleby",
        "headquarters": "Antony",
        "branch_offices": [
            "Rueil-Malmaison",
            "Levallois-Perret"
        ]
    },
    {
        "name": "InterCall",
        "ceo": "Virginia M. Rometty",
        "headquarters": "Saint-Andr\u00e9",
        "branch_offices": [
            "Toulouse",
            "Roubaix"
        ]
    },
    {
        "name": "Deutsche Bank",
        "ceo": "James P. Gorman",
        "headquarters": "Saint-Andr\u00e9",
        "branch_offices": [
            "Limoges",
            "Neuilly-sur-Seine"
        ]
    },
    {
        "name": "Jefferies Group",
        "ceo": "Shantanu Narayen",
        "headquarters": "Tours",
        "branch_offices": [
            "Aulnay-sous-Bois",
            "Amiens"
        ]
    },
    {
        "name": "GlaxoSmithKline",
        "ceo": "Sheldon Adelson",
        "headquarters": "Amiens",
        "branch_offices": [
            "Paris",
            "N\u00eemes"
        ]
    },
    {
        "name": "Canonical Ltd.",
        "ceo": "Abigail Johnson",
        "headquarters": "Rueil-Malmaison",
        "branch_offices": [
            "Reims",
            "Noisy-le-Grand"
        ]
    },
    {
        "name": "Cisco Systems",
        "ceo": "James Dimon",
        "headquarters": "Rouen",
        "branch_offices": [
            "Poitiers",
            "Noum\u00e9a"
        ]
    },
    {
        "name": "MetLife",
        "ceo": "Dominic Barton",
        "headquarters": "Villeneuve-d'Ascq",
        "branch_offices": [
            "Montauban",
            "Montreuil"
        ]
    },
    {
        "name": "Koch Industries Inc.",
        "ceo": "Tim Cook",
        "headquarters": "Bourges",
        "branch_offices": [
            "Grenoble",
            "Le Tampon"
        ]
    },
    {
        "name": "Dr. Reddy's",
        "ceo": "Salil Parekh",
        "headquarters": "La Seyne-sur-Mer",
        "branch_offices": [
            "Cergy",
            "Reims"
        ]
    },
    {
        "name": "Campbell Soup Company",
        "ceo": "Brian Moynihan",
        "headquarters": "Versailles",
        "branch_offices": [
            "Boulogne-Billancourt",
            "Lyon"
        ]
    },
    {
        "name": "General Dynamics",
        "ceo": "Michael Corbat",
        "headquarters": "N\u00eemes",
        "branch_offices": [
            "La Rochelle",
            "Levallois-Perret"
        ]
    },
    {
        "name": "Dr. Reddy's",
        "ceo": "Steven A. Kandarian",
        "headquarters": "Antony",
        "branch_offices": [
            "N\u00eemes",
            "Toulon"
        ]
    },
    {
        "name": "Gerdau",
        "ceo": "James E. Thompson",
        "headquarters": "Saint-Paul",
        "branch_offices": [
            "Pessac",
            "Chamb\u00e9ry"
        ]
    },
    {
        "name": "American Airlines Group",
        "ceo": "Edward D. Breen",
        "headquarters": "Brest",
        "branch_offices": [
            "Tours",
            "Rouen"
        ]
    },
    {
        "name": "GlaxoSmithKline",
        "ceo": "Marillyn Hewson",
        "headquarters": "Saint-Pierre",
        "branch_offices": [
            "Cergy",
            "Chamb\u00e9ry"
        ]
    },
    {
        "name": "MetLife",
        "ceo": "Jeff Clarke",
        "headquarters": "Poitiers",
        "branch_offices": [
            "Nice",
            "N\u00eemes"
        ]
    },
    {
        "name": "FedEx",
        "ceo": "Doug Parker",
        "headquarters": "Mulhouse",
        "branch_offices": [
            "V\u00e9nissieux",
            "Valence"
        ]
    },
    {
        "name": "Berkshire Hathaway",
        "ceo": "Lloyd Blankfein",
        "headquarters": "Brest",
        "branch_offices": [
            "Noisy-le-Grand",
            "Champigny-sur-Marne"
        ]
    },
    {
        "name": "Deutsche Bank",
        "ceo": "Warren Buffett",
        "headquarters": "Drancy",
        "branch_offices": [
            "Villeurbanne",
            "Saint-Nazaire"
        ]
    },
    {
        "name": "EY",
        "ceo": "Jim Umpleby",
        "headquarters": "Niort",
        "branch_offices": [
            "Amiens",
            "Toulon"
        ]
    },
    {
        "name": "Best Buy",
        "ceo": "Brian Moynihan",
        "headquarters": "Aulnay-sous-Bois",
        "branch_offices": [
            "Antibes",
            "Saint-Pierre"
        ]
    },
    {
        "name": "Blackstone Group",
        "ceo": "Shantanu Narayen",
        "headquarters": "Montreuil",
        "branch_offices": [
            "Lorient",
            "Rueil-Malmaison"
        ]
    },
    {
        "name": "Hewlett Packard Enterprise",
        "ceo": "Joseph R. Swedish",
        "headquarters": "Pessac",
        "branch_offices": [
            "Vitry-sur-Seine",
            "Quimper"
        ]
    },
    {
        "name": "Arcelor Mittal",
        "ceo": "Lakshmi Niwas Mittal",
        "headquarters": "Le Tampon",
        "branch_offices": [
            "Metz",
            "La Rochelle"
        ]
    },
    {
        "name": "Agenus",
        "ceo": "Kumar Birla",
        "headquarters": "Clichy",
        "branch_offices": [
            "Pessac",
            "Issy-les-Moulineaux"
        ]
    },
    {
        "name": "Apple Inc.",
        "ceo": "James Hackett",
        "headquarters": "Orl\u00e9ans",
        "branch_offices": [
            "Niort",
            "Drancy"
        ]
    },
    {
        "name": "Capital One Financial",
        "ceo": "Marillyn Hewson",
        "headquarters": "Colmar",
        "branch_offices": [
            "Saint-Quentin",
            "Cr\u00e9teil"
        ]
    },
    {
        "name": "Best Buy",
        "ceo": "Mark Shuttleworth",
        "headquarters": "V\u00e9nissieux",
        "branch_offices": [
            "Grenoble",
            "Antony"
        ]
    },
    {
        "name": "Honeywell",
        "ceo": "Jonathan Ornstein",
        "headquarters": "Hy\u00e8res",
        "branch_offices": [
            "La Rochelle",
            "Saint-Denis"
        ]
    },
    {
        "name": "General Electric",
        "ceo": "James Dimon",
        "headquarters": "V\u00e9nissieux",
        "branch_offices": [
            "Metz",
            "Marseille"
        ]
    },
    {
        "name": "BP",
        "ceo": "Jes Staley",
        "headquarters": "Clichy",
        "branch_offices": [
            "Ajaccio",
            "Antony"
        ]
    },
    {
        "name": "Morgan Stanley",
        "ceo": "Jes Staley",
        "headquarters": "Levallois-Perret",
        "branch_offices": [
            "Villeurbanne",
            "Sarcelles"
        ]
    },
    {
        "name": "HP Hood LLC",
        "ceo": "Brian Krzanich",
        "headquarters": "Aix-en-Provence",
        "branch_offices": [
            "Bordeaux",
            "Saint-\u00c9tienne"
        ]
    },
    {
        "name": "Cisco Systems",
        "ceo": "Lakshmi Niwas Mittal",
        "headquarters": "Saint-Denis",
        "branch_offices": [
            "La Seyne-sur-Mer",
            "Cherbourg-en-Cotentin"
        ]
    },
    {
        "name": "Hewlett Packard Enterprise",
        "ceo": "Jim Umpleby",
        "headquarters": "Drancy",
        "branch_offices": [
            "Colombes",
            "Nantes"
        ]
    },
    {
        "name": "Marks and Spencer",
        "ceo": "Doug Parker",
        "headquarters": "N\u00eemes",
        "branch_offices": [
            "Courbevoie",
            "Strasbourg"
        ]
    },
    {
        "name": "Deutsche Bank",
        "ceo": "Dieter Zetsche",
        "headquarters": "Besan\u00e7on",
        "branch_offices": [
            "Levallois-Perret",
            "Versailles"
        ]
    },
    {
        "name": "Airbus",
        "ceo": "Evan G. Greenberg",
        "headquarters": "Rouen",
        "branch_offices": [
            "Cergy",
            "Boulogne-Billancourt"
        ]
    },
    {
        "name": "Boston Consulting Group",
        "ceo": "Tim Cook",
        "headquarters": "Issy-les-Moulineaux",
        "branch_offices": [
            "Chamb\u00e9ry",
            "N\u00eemes"
        ]
    },
    {
        "name": "Capgemini",
        "ceo": "Emma Walmsley",
        "headquarters": "Amiens",
        "branch_offices": [
            "Courbevoie",
            "Saint-Paul"
        ]
    },
    {
        "name": "Accenture",
        "ceo": "Michael J. Saylor",
        "headquarters": "Besan\u00e7on",
        "branch_offices": [
            "Colombes",
            "Drancy"
        ]
    },
    {
        "name": "GlaxoSmithKline",
        "ceo": "Gunupati Venkata Krishna Reddy",
        "headquarters": "Dijon",
        "branch_offices": [
            "Clichy",
            "Noum\u00e9a"
        ]
    },
    {
        "name": "McDonald's",
        "ceo": "Lee Shau Kee",
        "headquarters": "Cergy",
        "branch_offices": [
            "Antibes",
            "Dunkerque"
        ]
    },
    {
        "name": "BNY Mellon",
        "ceo": "Francisco D'Souza",
        "headquarters": "Le Havre",
        "branch_offices": [
            "Aulnay-sous-Bois",
            "Cergy"
        ]
    },
    {
        "name": "J.Crew",
        "ceo": "Leslie Moonves",
        "headquarters": "Boulogne-Billancourt",
        "branch_offices": [
            "Quimper",
            "Orl\u00e9ans"
        ]
    },
    {
        "name": "Comcast",
        "ceo": "Joseph R. Swedish",
        "headquarters": "Avignon",
        "branch_offices": [
            "N\u00eemes",
            "Courbevoie"
        ]
    },
    {
        "name": "Aditya Birla Group",
        "ceo": "Tom Enders",
        "headquarters": "Quimper",
        "branch_offices": [
            "Courbevoie",
            "Montpellier"
        ]
    },
    {
        "name": "InterCall",
        "ceo": "James P. Gorman",
        "headquarters": "Mulhouse",
        "branch_offices": [
            "Calais",
            "La Seyne-sur-Mer"
        ]
    },
    {
        "name": "Morgan Stanley",
        "ceo": "Mark Weinberger",
        "headquarters": "Cherbourg-en-Cotentin",
        "branch_offices": [
            "Bourges",
            "M\u00e9rignac"
        ]
    },
    {
        "name": "MGA Entertainment",
        "ceo": "Emma Walmsley",
        "headquarters": "Brest",
        "branch_offices": [
            "Saint-Denis",
            "Paris"
        ]
    },
    {
        "name": "CBS Corporation",
        "ceo": "Randall L. Stephenson",
        "headquarters": "Dunkerque",
        "branch_offices": [
            "Clichy",
            "Besan\u00e7on"
        ]
    },
    {
        "name": "BNY Mellon",
        "ceo": "Phebe Novakovic",
        "headquarters": "Rueil-Malmaison",
        "branch_offices": [
            "Orl\u00e9ans",
            "Calais"
        ]
    },
    {
        "name": "Electronic Arts",
        "ceo": "Carlos Torres Vila",
        "headquarters": "Noisy-le-Grand",
        "branch_offices": [
            "Le Tampon",
            "Saint-Denis"
        ]
    },
    {
        "name": "Blackstone Group",
        "ceo": "Les Wexner",
        "headquarters": "Marseille",
        "branch_offices": [
            "Limoges",
            "Tourcoing"
        ]
    },
    {
        "name": "Caterpillar Inc.",
        "ceo": "Steve Rowe",
        "headquarters": "Clichy",
        "branch_offices": [
            "Saint-\u00c9tienne",
            "Valence"
        ]
    },
    {
        "name": "Aditya Birla Group",
        "ceo": "Mark Zuckerberg",
        "headquarters": "Caen",
        "branch_offices": [
            "Nancy",
            "La Seyne-sur-Mer"
        ]
    },
    {
        "name": "McKinsey",
        "ceo": "Harald Kr\u00fcger",
        "headquarters": "Noum\u00e9a",
        "branch_offices": [
            "Versailles",
            "Hy\u00e8res"
        ]
    },
    {
        "name": "Banco Bilbao Vizcaya Argentaria",
        "ceo": "Richard B. Handler",
        "headquarters": "Grenoble",
        "branch_offices": [
            "Metz",
            "Nanterre"
        ]
    },
    {
        "name": "MicroStrategy",
        "ceo": "Dominic Barton",
        "headquarters": "Rueil-Malmaison",
        "branch_offices": [
            "Aulnay-sous-Bois",
            "Aix-en-Provence"
        ]
    },
    {
        "name": "Las Vegas Sands",
        "ceo": "Frank Appel",
        "headquarters": "Saint-Pierre",
        "branch_offices": [
            "Aubervilliers",
            "Versailles"
        ]
    },
    {
        "name": "Dow Chemical Company",
        "ceo": "Darius Adamczyk",
        "headquarters": "Saint-\u00c9tienne",
        "branch_offices": [
            "Reims",
            "Colmar"
        ]
    },
    {
        "name": "Fiat S.p.A.",
        "ceo": "Carlos Torres Vila",
        "headquarters": "Le Havre",
        "branch_offices": [
            "Marseille",
            "Saint-Maur-des-Foss\u00e9s"
        ]
    },
    {
        "name": "Lockheed Martin",
        "ceo": "Tom Enders",
        "headquarters": "Cergy",
        "branch_offices": [
            "Pau",
            "Boulogne-Billancourt"
        ]
    },
    {
        "name": "eBay",
        "ceo": "Millard Drexler",
        "headquarters": "Chamb\u00e9ry",
        "branch_offices": [
            "Le Havre",
            "Colombes"
        ]
    },
    {
        "name": "AMD",
        "ceo": "Robert Noel",
        "headquarters": "Rouen",
        "branch_offices": [
            "Ajaccio",
            "Le Mans"
        ]
    },
    {
        "name": "Cognizant",
        "ceo": "Chuck Robbins",
        "headquarters": "Saint-Maur-des-Foss\u00e9s",
        "branch_offices": [
            "Grenoble",
            "Colmar"
        ]
    },
    {
        "name": "Koch Industries Inc.",
        "ceo": "Robert Noel",
        "headquarters": "Tourcoing",
        "branch_offices": [
            "Paris",
            "N\u00eemes"
        ]
    },
    {
        "name": "MSC",
        "ceo": "Tim Cook",
        "headquarters": "Tourcoing",
        "branch_offices": [
            "Lorient",
            "Tourcoing"
        ]
    },
    {
        "name": "Fiat S.p.A.",
        "ceo": "Charles Scharf",
        "headquarters": "Metz",
        "branch_offices": [
            "Avignon",
            "Villeneuve-d'Ascq"
        ]
    },
    {
        "name": "Hewlett Packard Enterprise",
        "ceo": "James Hackett",
        "headquarters": "Orl\u00e9ans",
        "branch_offices": [
            "Cannes",
            "Le Mans"
        ]
    },
    {
        "name": "Fiat S.p.A.",
        "ceo": "Andrew Wilson",
        "headquarters": "Marseille",
        "branch_offices": [
            "Saint-\u00c9tienne",
            "Paris"
        ]
    },
    {
        "name": "AT&T",
        "ceo": "Dieter Zetsche",
        "headquarters": "Chamb\u00e9ry",
        "branch_offices": [
            "Limoges",
            "Caen"
        ]
    },
    {
        "name": "GMA Network",
        "ceo": "Charles Woodburn",
        "headquarters": "B\u00e9ziers",
        "branch_offices": [
            "Hy\u00e8res",
            "Montreuil"
        ]
    },
    {
        "name": "Apple Inc.",
        "ceo": "Randall L. Stephenson",
        "headquarters": "Cannes",
        "branch_offices": [
            "Bourges",
            "Mulhouse"
        ]
    },
    {
        "name": "MetLife",
        "ceo": "Lisa Su",
        "headquarters": "Metz",
        "branch_offices": [
            "Toulon",
            "Pessac"
        ]
    },
    {
        "name": "Bharti Enterprises",
        "ceo": "Frederick W. Smith",
        "headquarters": "Le Mans",
        "branch_offices": [
            "Le Mans",
            "Cherbourg-en-Cotentin"
        ]
    },
    {
        "name": "Caterpillar Inc.",
        "ceo": "Les Wexner",
        "headquarters": "Le Mans",
        "branch_offices": [
            "Aulnay-sous-Bois",
            "Clichy"
        ]
    },
    {
        "name": "Hewlett Packard Enterprise",
        "ceo": "Kumar Birla",
        "headquarters": "Colmar",
        "branch_offices": [
            "Cr\u00e9teil",
            "Lyon"
        ]
    },
    {
        "name": "Bajaj Allianz General Insurance",
        "ceo": "Lakshmi Niwas Mittal",
        "headquarters": "Caen",
        "branch_offices": [
            "Rennes",
            "V\u00e9nissieux"
        ]
    },
    {
        "name": "Morgan Stanley",
        "ceo": "Jeff Clarke",
        "headquarters": "Limoges",
        "branch_offices": [
            "Besan\u00e7on",
            "Chamb\u00e9ry"
        ]
    },
    {
        "name": "Airbus",
        "ceo": "Denise Morrison",
        "headquarters": "Cherbourg-en-Cotentin",
        "branch_offices": [
            "Quimper",
            "Ajaccio"
        ]
    },
    {
        "name": "General Motors",
        "ceo": "C Vijayakumar",
        "headquarters": "Avignon",
        "branch_offices": [
            "Clermont-Ferrand",
            "Saint-Pierre"
        ]
    },
    {
        "name": "J.Crew",
        "ceo": "Pierre Nanterme",
        "headquarters": "Issy-les-Moulineaux",
        "branch_offices": [
            "Colombes",
            "Noisy-le-Grand"
        ]
    },
    {
        "name": "Campbell Soup Company",
        "ceo": "Michael Corbat",
        "headquarters": "Roubaix",
        "branch_offices": [
            "Calais",
            "Saint-Paul"
        ]
    },
    {
        "name": "Foxconn Electronics Inc",
        "ceo": "Scott Etzler",
        "headquarters": "Sarcelles",
        "branch_offices": [
            "Niort",
            "Cherbourg-en-Cotentin"
        ]
    },
    {
        "name": "MGA Entertainment",
        "ceo": "Steve Easterbrook",
        "headquarters": "Besan\u00e7on",
        "branch_offices": [
            "Roubaix",
            "Saint-Denis"
        ]
    },
    {
        "name": "Best Buy",
        "ceo": "Andrew Mackenzie",
        "headquarters": "Annecy",
        "branch_offices": [
            "Cherbourg-en-Cotentin",
            "Nancy"
        ]
    },
    {
        "name": "Jefferies Group",
        "ceo": "Evan G. Greenberg",
        "headquarters": "Avignon",
        "branch_offices": [
            "Rueil-Malmaison",
            "La Seyne-sur-Mer"
        ]
    },
    {
        "name": "Lockheed Martin",
        "ceo": "Michael Corbat",
        "headquarters": "Antony",
        "branch_offices": [
            "Metz",
            "Lyon"
        ]
    },
    {
        "name": "AT&T",
        "ceo": "Abigail Johnson",
        "headquarters": "Ivry-sur-Seine",
        "branch_offices": [
            "La Rochelle",
            "Clermont-Ferrand"
        ]
    },
    {
        "name": "BNY Mellon",
        "ceo": "Tom Enders",
        "headquarters": "Neuilly-sur-Seine",
        "branch_offices": [
            "Noisy-le-Grand",
            "Noum\u00e9a"
        ]
    },
    {
        "name": "GVK Group",
        "ceo": "Brian Moynihan",
        "headquarters": "Nice",
        "branch_offices": [
            "Champigny-sur-Marne",
            "Versailles"
        ]
    },
    {
        "name": "Ford Motor Company",
        "ceo": "Frederick W. Smith",
        "headquarters": "Avignon",
        "branch_offices": [
            "Marseille",
            "Tours"
        ]
    },
    {
        "name": "Henderson Land Development",
        "ceo": "Dennis Muilenburg",
        "headquarters": "Bordeaux",
        "branch_offices": [
            "Champigny-sur-Marne",
            "Dijon"
        ]
    },
    {
        "name": "Kaplan, Inc.",
        "ceo": "Tim Cook",
        "headquarters": "Chamb\u00e9ry",
        "branch_offices": [
            "La Rochelle",
            "Troyes"
        ]
    },
    {
        "name": "Koch Industries Inc.",
        "ceo": "Gunupati Venkata Krishna Reddy",
        "headquarters": "Asni\u00e8res-sur-Seine",
        "branch_offices": [
            "Bourges",
            "Argenteuil"
        ]
    },
    {
        "name": "Boeing",
        "ceo": "Joseph R. Swedish",
        "headquarters": "Saint-Pierre",
        "branch_offices": [
            "Lyon",
            "Cannes"
        ]
    },
    {
        "name": "FUBU",
        "ceo": "Steve Easterbrook",
        "headquarters": "Cayenne",
        "branch_offices": [
            "Tourcoing",
            "Niort"
        ]
    },
    {
        "name": "MSC",
        "ceo": "Charles Scharf",
        "headquarters": "Bourges",
        "branch_offices": [
            "Rouen",
            "Sarcelles"
        ]
    },
    {
        "name": "Morgan Stanley",
        "ceo": "Darren Woods",
        "headquarters": "Courbevoie",
        "branch_offices": [
            "Clichy",
            "Calais"
        ]
    },
    {
        "name": "Lockheed Martin",
        "ceo": "Michael Corbat",
        "headquarters": "Bordeaux",
        "branch_offices": [
            "Nice",
            "Reims"
        ]
    },
    {
        "name": "Deutsche Bank",
        "ceo": "Jeff Clarke",
        "headquarters": "Quimper",
        "branch_offices": [
            "Versailles",
            "Cr\u00e9teil"
        ]
    },
    {
        "name": "Jefferies Group",
        "ceo": "Marillyn Hewson",
        "headquarters": "Sarcelles",
        "branch_offices": [
            "Levallois-Perret",
            "Villejuif"
        ]
    },
    {
        "name": "Campbell Soup Company",
        "ceo": "Michael Corbat",
        "headquarters": "Champigny-sur-Marne",
        "branch_offices": [
            "Asni\u00e8res-sur-Seine",
            "Mamoudzou"
        ]
    },
    {
        "name": "MSC",
        "ceo": "Scott Etzler",
        "headquarters": "Aubervilliers",
        "branch_offices": [
            "Levallois-Perret",
            "Mulhouse"
        ]
    },
    {
        "name": "Land Securities",
        "ceo": "Phebe Novakovic",
        "headquarters": "Villeurbanne",
        "branch_offices": [
            "Asni\u00e8res-sur-Seine",
            "Antony"
        ]
    },
    {
        "name": "Facebook",
        "ceo": "Devin Wenig",
        "headquarters": "Montauban",
        "branch_offices": [
            "Villejuif",
            "Issy-les-Moulineaux"
        ]
    },
    {
        "name": "McKinsey",
        "ceo": "Stuart Gulliver",
        "headquarters": "Montreuil",
        "branch_offices": [
            "Rueil-Malmaison",
            "Mamoudzou"
        ]
    },
    {
        "name": "Dr. Reddy's",
        "ceo": "Francisco D'Souza",
        "headquarters": "Colombes",
        "branch_offices": [
            "Drancy",
            "Quimper"
        ]
    },
    {
        "name": "Morgan Stanley",
        "ceo": "Sunil Bharti Mittal",
        "headquarters": "Roubaix",
        "branch_offices": [
            "Nice",
            "Saint-Pierre"
        ]
    },
    {
        "name": "FedEx",
        "ceo": "Frederick W. Smith",
        "headquarters": "Caen",
        "branch_offices": [
            "Bordeaux",
            "Pessac"
        ]
    },
    {
        "name": "Campbell Soup Company",
        "ceo": "Dieter Zetsche",
        "headquarters": "Perpignan",
        "branch_offices": [
            "Cr\u00e9teil",
            "Toulouse"
        ]
    },
    {
        "name": "Intel",
        "ceo": "Michael Dell",
        "headquarters": "Villeurbanne",
        "branch_offices": [
            "Clermont-Ferrand",
            "Le Tampon"
        ]
    },
    {
        "name": "American Express",
        "ceo": "Lakshmi Niwas Mittal",
        "headquarters": "Aix-en-Provence",
        "branch_offices": [
            "Noisy-le-Grand",
            "Nice"
        ]
    },
    {
        "name": "Campbell Soup Company",
        "ceo": "James Dimon",
        "headquarters": "Aix-en-Provence",
        "branch_offices": [
            "Marseille",
            "Cergy"
        ]
    },
    {
        "name": "GlaxoSmithKline",
        "ceo": "Robert Noel",
        "headquarters": "Aubervilliers",
        "branch_offices": [
            "Antony",
            "Aubervilliers"
        ]
    },
    {
        "name": "Blackstone Group",
        "ceo": "James Quincey",
        "headquarters": "Poitiers",
        "branch_offices": [
            "Aulnay-sous-Bois",
            "Caen"
        ]
    },
    {
        "name": "Google",
        "ceo": "Shantanu Narayen",
        "headquarters": "Saint-Denis",
        "branch_offices": [
            "Pau",
            "Saint-Denis"
        ]
    },
    {
        "name": "AT&T",
        "ceo": "Andrew S. Rosen",
        "headquarters": "Toulon",
        "branch_offices": [
            "Rueil-Malmaison",
            "Ivry-sur-Seine"
        ]
    },
    {
        "name": "Citigroup",
        "ceo": "Jonathan Ornstein",
        "headquarters": "Caen",
        "branch_offices": [
            "Montreuil",
            "Poitiers"
        ]
    },
    {
        "name": "Adobe Systems",
        "ceo": "John A. Kaneb",
        "headquarters": "Saint-Denis",
        "branch_offices": [
            "Noum\u00e9a",
            "Sarcelles"
        ]
    },
    {
        "name": "Ford Motor Company",
        "ceo": "Kenneth Chenault",
        "headquarters": "Strasbourg",
        "branch_offices": [
            "Sarcelles",
            "Cergy"
        ]
    },
    {
        "name": "McDonald's",
        "ceo": "James Quincey",
        "headquarters": "Annecy",
        "branch_offices": [
            "Fort-de-France",
            "Levallois-Perret"
        ]
    },
    {
        "name": "Comcast",
        "ceo": "Gunupati Venkata Krishna Reddy",
        "headquarters": "Limoges",
        "branch_offices": [
            "Cr\u00e9teil",
            "Bordeaux"
        ]
    },
    {
        "name": "EY",
        "ceo": "Garo H. Armen",
        "headquarters": "Nantes",
        "branch_offices": [
            "Saint-Quentin",
            "Reims"
        ]
    },
    {
        "name": "Dr. Reddy's",
        "ceo": "Rafaela Aponte",
        "headquarters": "Rouen",
        "branch_offices": [
            "Caen",
            "Strasbourg"
        ]
    },
    {
        "name": "MSC",
        "ceo": "Shantanu Narayen",
        "headquarters": "La Seyne-sur-Mer",
        "branch_offices": [
            "Nantes",
            "Villeurbanne"
        ]
    },
    {
        "name": "HSBC",
        "ceo": "Sunil Bharti Mittal",
        "headquarters": "Rueil-Malmaison",
        "branch_offices": [
            "Cergy",
            "Rennes"
        ]
    },
    {
        "name": "Honeywell",
        "ceo": "Brian Moynihan",
        "headquarters": "Lyon",
        "branch_offices": [
            "Cayenne",
            "Colmar"
        ]
    },
    {
        "name": "Bank of America",
        "ceo": "Randall L. Stephenson",
        "headquarters": "Lille",
        "branch_offices": [
            "Clichy",
            "Bordeaux"
        ]
    },
    {
        "name": "IBM",
        "ceo": "Andrew S. Rosen",
        "headquarters": "Toulon",
        "branch_offices": [
            "Tours",
            "Le Havre"
        ]
    },
    {
        "name": "General Dynamics",
        "ceo": "Mark Zuckerberg",
        "headquarters": "Rennes",
        "branch_offices": [
            "Toulon",
            "Rueil-Malmaison"
        ]
    },
    {
        "name": "McDonald's",
        "ceo": "Sergio Marchionne",
        "headquarters": "B\u00e9ziers",
        "branch_offices": [
            "Ivry-sur-Seine",
            "Le Mans"
        ]
    },
    {
        "name": "GMA Network",
        "ceo": "Randall L. Stephenson",
        "headquarters": "Angers",
        "branch_offices": [
            "Avignon",
            "Ivry-sur-Seine"
        ]
    },
    {
        "name": "EY",
        "ceo": "Andr\u00e9 Bier Gerdau Johannpeter",
        "headquarters": "Dijon",
        "branch_offices": [
            "Rennes",
            "V\u00e9nissieux"
        ]
    },
    {
        "name": "General Motors",
        "ceo": "Shantanu Narayen",
        "headquarters": "Ivry-sur-Seine",
        "branch_offices": [
            "Mamoudzou",
            "Metz"
        ]
    },
    {
        "name": "Arcelor Mittal",
        "ceo": "Jonathan Ornstein",
        "headquarters": "Saint-Quentin",
        "branch_offices": [
            "Cr\u00e9teil",
            "Avignon"
        ]
    },
    {
        "name": "Goldman Sachs",
        "ceo": "James E. Thompson",
        "headquarters": "Colmar",
        "branch_offices": [
            "Neuilly-sur-Seine",
            "Saint-Nazaire"
        ]
    },
    {
        "name": "GMA Network",
        "ceo": "Devin Wenig",
        "headquarters": "Caen",
        "branch_offices": [
            "Boulogne-Billancourt",
            "M\u00e9rignac"
        ]
    },
    {
        "name": "L Brands",
        "ceo": "Tim Cook",
        "headquarters": "Villeurbanne",
        "branch_offices": [
            "Noisy-le-Grand",
            "Asni\u00e8res-sur-Seine"
        ]
    },
    {
        "name": "Dow Chemical Company",
        "ceo": "Steven A. Kandarian",
        "headquarters": "Mulhouse",
        "branch_offices": [
            "Nanterre",
            "B\u00e9ziers"
        ]
    },
    {
        "name": "Dr. Reddy's",
        "ceo": "Evan G. Greenberg",
        "headquarters": "Marseille",
        "branch_offices": [
            "Paris",
            "N\u00eemes"
        ]
    },
    {
        "name": "Capital One Financial",
        "ceo": "Steven A. Kandarian",
        "headquarters": "Pessac",
        "branch_offices": [
            "Troyes",
            "Limoges"
        ]
    },
    {
        "name": "JP Morgan Chase",
        "ceo": "Brian Moynihan",
        "headquarters": "Clermont-Ferrand",
        "branch_offices": [
            "Toulon",
            "Champigny-sur-Marne"
        ]
    },
    {
        "name": "MetLife",
        "ceo": "Daymond John",
        "headquarters": "Villeneuve-d'Ascq",
        "branch_offices": [
            "Dijon",
            "Argenteuil"
        ]
    },
    {
        "name": "Caterpillar Inc.",
        "ceo": "Brian Moynihan",
        "headquarters": "Nantes",
        "branch_offices": [
            "Aix-en-Provence",
            "Valence"
        ]
    },
    {
        "name": "Deutsche Bank",
        "ceo": "Isaac Larian",
        "headquarters": "Nancy",
        "branch_offices": [
            "Tours",
            "V\u00e9nissieux"
        ]
    },
    {
        "name": "Arcelor Mittal",
        "ceo": "Mary T. Barra",
        "headquarters": "Saint-Quentin",
        "branch_offices": [
            "Le Tampon",
            "N\u00eemes"
        ]
    }
]